%!PS-Adobe-2.0 EPSF-2.0
%%Title: /home/ammon/usu/ObjectOriented/Homework2/StockMonitor/CommunicatorStateDiagram.dia
%%Creator: Dia v0.97.3
%%CreationDate: Sat Dec 10 21:59:39 2016
%%For: ammon
%%Orientation: Portrait
%%Magnification: 1.0000
%%BoundingBox: 0 0 774 557
%%BeginSetup
%%EndSetup
%%EndComments
%%BeginProlog
[ /.notdef /.notdef /.notdef /.notdef /.notdef /.notdef /.notdef /.notdef /.notdef /.notdef
/.notdef /.notdef /.notdef /.notdef /.notdef /.notdef /.notdef /.notdef /.notdef /.notdef
/.notdef /.notdef /.notdef /.notdef /.notdef /.notdef /.notdef /.notdef /.notdef /.notdef
/.notdef /.notdef /space /exclam /quotedbl /numbersign /dollar /percent /ampersand /quoteright
/parenleft /parenright /asterisk /plus /comma /hyphen /period /slash /zero /one
/two /three /four /five /six /seven /eight /nine /colon /semicolon
/less /equal /greater /question /at /A /B /C /D /E
/F /G /H /I /J /K /L /M /N /O
/P /Q /R /S /T /U /V /W /X /Y
/Z /bracketleft /backslash /bracketright /asciicircum /underscore /quoteleft /a /b /c
/d /e /f /g /h /i /j /k /l /m
/n /o /p /q /r /s /t /u /v /w
/x /y /z /braceleft /bar /braceright /asciitilde /.notdef /.notdef /.notdef
/.notdef /.notdef /.notdef /.notdef /.notdef /.notdef /.notdef /.notdef /.notdef /.notdef
/.notdef /.notdef /.notdef /.notdef /.notdef /.notdef /.notdef /.notdef /.notdef /.notdef
/.notdef /.notdef /.notdef /.notdef /.notdef /.notdef /.notdef /.notdef /.notdef /.notdef
/space /exclamdown /cent /sterling /currency /yen /brokenbar /section /dieresis /copyright
/ordfeminine /guillemotleft /logicalnot /hyphen /registered /macron /degree /plusminus /twosuperior /threesuperior
/acute /mu /paragraph /periodcentered /cedilla /onesuperior /ordmasculine /guillemotright /onequarter /onehalf
/threequarters /questiondown /Agrave /Aacute /Acircumflex /Atilde /Adieresis /Aring /AE /Ccedilla
/Egrave /Eacute /Ecircumflex /Edieresis /Igrave /Iacute /Icircumflex /Idieresis /Eth /Ntilde
/Ograve /Oacute /Ocircumflex /Otilde /Odieresis /multiply /Oslash /Ugrave /Uacute /Ucircumflex
/Udieresis /Yacute /Thorn /germandbls /agrave /aacute /acircumflex /atilde /adieresis /aring
/ae /ccedilla /egrave /eacute /ecircumflex /edieresis /igrave /iacute /icircumflex /idieresis
/eth /ntilde /ograve /oacute /ocircumflex /otilde /odieresis /divide /oslash /ugrave
/uacute /ucircumflex /udieresis /yacute /thorn /ydieresis] /isolatin1encoding exch def
/cp {closepath} bind def
/c {curveto} bind def
/f {fill} bind def
/a {arc} bind def
/ef {eofill} bind def
/ex {exch} bind def
/gr {grestore} bind def
/gs {gsave} bind def
/sa {save} bind def
/rs {restore} bind def
/l {lineto} bind def
/m {moveto} bind def
/rm {rmoveto} bind def
/n {newpath} bind def
/s {stroke} bind def
/sh {show} bind def
/slc {setlinecap} bind def
/slj {setlinejoin} bind def
/slw {setlinewidth} bind def
/srgb {setrgbcolor} bind def
/rot {rotate} bind def
/sc {scale} bind def
/sd {setdash} bind def
/ff {findfont} bind def
/sf {setfont} bind def
/scf {scalefont} bind def
/sw {stringwidth pop} bind def
/tr {translate} bind def

/ellipsedict 8 dict def
ellipsedict /mtrx matrix put
/ellipse
{ ellipsedict begin
   /endangle exch def
   /startangle exch def
   /yrad exch def
   /xrad exch def
   /y exch def
   /x exch def   /savematrix mtrx currentmatrix def
   x y tr xrad yrad sc
   0 0 1 startangle endangle arc
   savematrix setmatrix
   end
} def

/mergeprocs {
dup length
3 -1 roll
dup
length
dup
5 1 roll
3 -1 roll
add
array cvx
dup
3 -1 roll
0 exch
putinterval
dup
4 2 roll
putinterval
} bind def
/dpi_x 300 def
/dpi_y 300 def
/conicto {
    /to_y exch def
    /to_x exch def
    /conic_cntrl_y exch def
    /conic_cntrl_x exch def
    currentpoint
    /p0_y exch def
    /p0_x exch def
    /p1_x p0_x conic_cntrl_x p0_x sub 2 3 div mul add def
    /p1_y p0_y conic_cntrl_y p0_y sub 2 3 div mul add def
    /p2_x p1_x to_x p0_x sub 1 3 div mul add def
    /p2_y p1_y to_y p0_y sub 1 3 div mul add def
    p1_x p1_y p2_x p2_y to_x to_y curveto
} bind def
/start_ol { gsave 1.1 dpi_x div dup scale} bind def
/end_ol { closepath fill grestore } bind def
28.346000 -28.346000 scale
-21.400000 -17.112700 translate
%%EndProlog


0.100000 slw
[] 0 sd
0.000000 0.000000 0.000000 srgb
n 27.850000 4.850000 0.500000 0.500000 0 360 ellipse f
0.100000 slw
[] 0 sd
1.000000 1.000000 1.000000 srgb
n 26.550000 13.200000 m 26.550000 15.000000 l 29.550000 15.000000 l 29.550000 13.200000 l f
n 26.550000 13.700000 m 26.550000 13.700000 0.500000 0.500000 180.000000 270.000000 ellipse f
n 29.550000 13.700000 m 29.550000 13.700000 0.500000 0.500000 270.000000 360.000000 ellipse f
n 26.050000 13.700000 m 26.050000 14.500000 l 30.050000 14.500000 l 30.050000 13.700000 l f
n 26.550000 14.500000 m 26.550000 14.500000 0.500000 0.500000 90.000000 180.000000 ellipse f
n 29.550000 14.500000 m 29.550000 14.500000 0.500000 0.500000 0.000000 90.000000 ellipse f
0.000000 0.000000 0.000000 srgb
n 26.550000 13.200000 m 29.550000 13.200000 l s
n 26.550000 15.000000 m 29.550000 15.000000 l s
n 26.550000 13.700000 0.500000 0.500000 180.000000 270.000000 ellipse s
n 29.550000 13.700000 0.500000 0.500000 270.000000 360.000000 ellipse s
n 26.050000 13.700000 m 26.050000 14.500000 l s
n 30.050000 13.700000 m 30.050000 14.500000 l s
n 26.550000 14.500000 0.500000 0.500000 90.000000 180.000000 ellipse s
n 29.550000 14.500000 0.500000 0.500000 0.000000 90.000000 ellipse s
gsave 26.848750 14.295000 translate 0.035278 -0.035278 scale
start_ol
192 3520 moveto
676 3520 lineto
1420 545 lineto
2162 3520 lineto
2700 3520 lineto
3444 545 lineto
4186 3520 lineto
4672 3520 lineto
3783 0 lineto
3181 0 lineto
2434 3056 lineto
1681 0 lineto
1079 0 lineto
192 3520 lineto
end_ol grestore 
gsave 27.440689 14.295000 translate 0.035278 -0.035278 scale
start_ol
1622 1344 moveto
1104 1344 904 1225 conicto
704 1106 704 818 conicto
704 589 854 454 conicto
1004 320 1262 320 conicto
1618 320 1833 572 conicto
2048 825 2048 1244 conicto
2048 1344 lineto
1622 1344 lineto
2496 1513 moveto
2496 0 lineto
2048 0 lineto
2048 384 lineto
1900 154 1679 45 conicto
1458 -64 1138 -64 conicto
733 -64 494 162 conicto
256 389 256 769 conicto
256 1213 555 1438 conicto
854 1664 1448 1664 conicto
2048 1664 lineto
2048 1712 lineto
2048 2025 1851 2196 conicto
1655 2368 1300 2368 conicto
1074 2368 860 2320 conicto
646 2272 448 2176 conicto
448 2560 lineto
687 2656 912 2704 conicto
1138 2752 1351 2752 conicto
1927 2752 2211 2444 conicto
2496 2137 2496 1513 conicto
end_ol grestore 
gsave 27.832818 14.295000 translate 0.035278 -0.035278 scale
start_ol
448 2688 moveto
896 2688 lineto
896 0 lineto
448 0 lineto
448 2688 lineto
448 3712 moveto
896 3712 lineto
896 3136 lineto
448 3136 lineto
448 3712 lineto
end_ol grestore 
gsave 28.010147 14.295000 translate 0.035278 -0.035278 scale
start_ol
896 3456 moveto
896 2688 lineto
1792 2688 lineto
1792 2368 lineto
896 2368 lineto
896 902 lineto
896 572 984 478 conicto
1073 384 1345 384 conicto
1792 384 lineto
1792 0 lineto
1345 0 lineto
836 0 642 194 conicto
448 389 448 902 conicto
448 2368 lineto
128 2368 lineto
128 2688 lineto
448 2688 lineto
448 3456 lineto
896 3456 lineto
end_ol grestore 
gsave 28.259913 14.295000 translate 0.035278 -0.035278 scale
start_ol
448 2688 moveto
896 2688 lineto
896 0 lineto
448 0 lineto
448 2688 lineto
448 3712 moveto
896 3712 lineto
896 3136 lineto
448 3136 lineto
448 3712 lineto
end_ol grestore 
gsave 28.437242 14.295000 translate 0.035278 -0.035278 scale
start_ol
2688 1646 moveto
2688 0 lineto
2240 0 lineto
2240 1632 lineto
2240 2001 2093 2184 conicto
1947 2368 1654 2368 conicto
1302 2368 1099 2146 conicto
896 1925 896 1542 conicto
896 0 lineto
448 0 lineto
448 2688 lineto
896 2688 lineto
896 2304 lineto
1053 2529 1266 2640 conicto
1479 2752 1757 2752 conicto
2217 2752 2452 2471 conicto
2688 2191 2688 1646 conicto
end_ol grestore 
gsave 28.841856 14.295000 translate 0.035278 -0.035278 scale
start_ol
2176 1375 moveto
2176 1848 1982 2108 conicto
1789 2368 1439 2368 conicto
1091 2368 897 2108 conicto
704 1848 704 1375 conicto
704 904 897 644 conicto
1091 384 1439 384 conicto
1789 384 1982 644 conicto
2176 904 2176 1375 conicto
2624 347 moveto
2624 -347 2323 -685 conicto
2023 -1024 1404 -1024 conicto
1174 -1024 971 -992 conicto
768 -961 576 -896 conicto
576 -448 lineto
766 -546 951 -593 conicto
1137 -640 1329 -640 conicto
1754 -640 1965 -415 conicto
2176 -190 2176 264 conicto
2176 448 lineto
2042 223 1833 111 conicto
1624 0 1332 0 conicto
848 0 552 376 conicto
256 753 256 1375 conicto
256 1999 552 2375 conicto
848 2752 1332 2752 conicto
1624 2752 1833 2640 conicto
2042 2529 2176 2304 conicto
2176 2688 lineto
2624 2688 lineto
2624 347 lineto
end_ol grestore 
0.100000 slw
0 slc
[] 0 sd
n 28.350000 4.850000 m 34.199783 4.850000 l 34.199783 4.337500 l 39.825958 4.337500 l s
0.100000 slw
[] 0 sd
0 slj
0 slc
n 39.437762 4.587500 m 39.937762 4.337500 l 39.437762 4.087500 l s
gsave 29.867283 3.093750 translate 0.035278 -0.035278 scale
start_ol
960 3136 moveto
960 1792 lineto
1552 1792 lineto
1881 1792 2060 1967 conicto
2240 2142 2240 2465 conicto
2240 2786 2060 2961 conicto
1881 3136 1552 3136 conicto
960 3136 lineto
448 3520 moveto
1552 3520 lineto
2145 3520 2448 3251 conicto
2752 2983 2752 2465 conicto
2752 1943 2448 1675 conicto
2145 1408 1552 1408 conicto
960 1408 lineto
960 0 lineto
448 0 lineto
448 3520 lineto
end_ol grestore 
gsave 30.241933 3.093750 translate 0.035278 -0.035278 scale
start_ol
1984 2304 moveto
1912 2337 1828 2352 conicto
1744 2368 1642 2368 conicto
1282 2368 1089 2127 conicto
896 1887 896 1437 conicto
896 0 lineto
448 0 lineto
448 2688 lineto
896 2688 lineto
896 2304 lineto
1030 2531 1245 2641 conicto
1460 2752 1767 2752 conicto
1811 2752 1864 2752 conicto
1917 2752 1982 2752 conicto
1984 2304 lineto
end_ol grestore 
gsave 30.489194 3.093750 translate 0.035278 -0.035278 scale
start_ol
1473 2368 moveto
1117 2368 910 2094 conicto
704 1820 704 1344 conicto
704 868 909 594 conicto
1115 320 1473 320 conicto
1827 320 2033 595 conicto
2240 870 2240 1344 conicto
2240 1816 2033 2092 conicto
1827 2368 1473 2368 conicto
1472 2752 moveto
2040 2752 2364 2378 conicto
2688 2005 2688 1344 conicto
2688 685 2364 310 conicto
2040 -64 1472 -64 conicto
902 -64 579 310 conicto
256 685 256 1344 conicto
256 2005 579 2378 conicto
902 2752 1472 2752 conicto
end_ol grestore 
gsave 30.881323 3.093750 translate 0.035278 -0.035278 scale
start_ol
2176 1375 moveto
2176 1848 1982 2108 conicto
1789 2368 1439 2368 conicto
1091 2368 897 2108 conicto
704 1848 704 1375 conicto
704 904 897 644 conicto
1091 384 1439 384 conicto
1789 384 1982 644 conicto
2176 904 2176 1375 conicto
2624 347 moveto
2624 -347 2323 -685 conicto
2023 -1024 1404 -1024 conicto
1174 -1024 971 -992 conicto
768 -961 576 -896 conicto
576 -448 lineto
766 -546 951 -593 conicto
1137 -640 1329 -640 conicto
1754 -640 1965 -415 conicto
2176 -190 2176 264 conicto
2176 448 lineto
2042 223 1833 111 conicto
1624 0 1332 0 conicto
848 0 552 376 conicto
256 753 256 1375 conicto
256 1999 552 2375 conicto
848 2752 1332 2752 conicto
1624 2752 1833 2640 conicto
2042 2529 2176 2304 conicto
2176 2688 lineto
2624 2688 lineto
2624 347 lineto
end_ol grestore 
gsave 31.288442 3.093750 translate 0.035278 -0.035278 scale
start_ol
1984 2304 moveto
1912 2337 1828 2352 conicto
1744 2368 1642 2368 conicto
1282 2368 1089 2127 conicto
896 1887 896 1437 conicto
896 0 lineto
448 0 lineto
448 2688 lineto
896 2688 lineto
896 2304 lineto
1030 2531 1245 2641 conicto
1460 2752 1767 2752 conicto
1811 2752 1864 2752 conicto
1917 2752 1982 2752 conicto
1984 2304 lineto
end_ol grestore 
gsave 31.550694 3.093750 translate 0.035278 -0.035278 scale
start_ol
1622 1344 moveto
1104 1344 904 1225 conicto
704 1106 704 818 conicto
704 589 854 454 conicto
1004 320 1262 320 conicto
1618 320 1833 572 conicto
2048 825 2048 1244 conicto
2048 1344 lineto
1622 1344 lineto
2496 1513 moveto
2496 0 lineto
2048 0 lineto
2048 384 lineto
1900 154 1679 45 conicto
1458 -64 1138 -64 conicto
733 -64 494 162 conicto
256 389 256 769 conicto
256 1213 555 1438 conicto
854 1664 1448 1664 conicto
2048 1664 lineto
2048 1712 lineto
2048 2025 1851 2196 conicto
1655 2368 1300 2368 conicto
1074 2368 860 2320 conicto
646 2272 448 2176 conicto
448 2560 lineto
687 2656 912 2704 conicto
1138 2752 1351 2752 conicto
1927 2752 2211 2444 conicto
2496 2137 2496 1513 conicto
end_ol grestore 
gsave 31.942823 3.093750 translate 0.035278 -0.035278 scale
start_ol
2549 2204 moveto
2714 2485 2942 2618 conicto
3171 2752 3482 2752 conicto
3899 2752 4125 2464 conicto
4352 2177 4352 1646 conicto
4352 0 lineto
3904 0 lineto
3904 1632 lineto
3904 2006 3769 2187 conicto
3634 2368 3356 2368 conicto
3017 2368 2820 2146 conicto
2624 1925 2624 1542 conicto
2624 0 lineto
2176 0 lineto
2176 1632 lineto
2176 2008 2041 2188 conicto
1906 2368 1624 2368 conicto
1289 2368 1092 2145 conicto
896 1922 896 1542 conicto
896 0 lineto
448 0 lineto
448 2688 lineto
896 2688 lineto
896 2304 lineto
1046 2534 1255 2643 conicto
1465 2752 1753 2752 conicto
2044 2752 2247 2611 conicto
2451 2471 2549 2204 conicto
end_ol grestore 
gsave 32.564735 3.093750 translate 0.035278 -0.035278 scale
start_ol
2624 3392 moveto
2624 2944 lineto
2352 3073 2111 3136 conicto
1870 3200 1645 3200 conicto
1255 3200 1043 3052 conicto
832 2904 832 2631 conicto
832 2402 969 2285 conicto
1107 2169 1491 2097 conicto
1773 2039 lineto
2308 1937 2562 1678 conicto
2816 1420 2816 986 conicto
2816 469 2468 202 conicto
2121 -64 1450 -64 conicto
1197 -64 911 0 conicto
626 65 320 192 conicto
320 704 lineto
613 513 893 416 conicto
1174 320 1445 320 conicto
1857 320 2080 485 conicto
2304 650 2304 955 conicto
2304 1221 2148 1371 conicto
1992 1522 1636 1597 conicto
1352 1652 lineto
807 1756 563 1978 conicto
320 2201 320 2597 conicto
320 3056 654 3320 conicto
989 3584 1576 3584 conicto
1828 3584 2089 3536 conicto
2351 3488 2624 3392 conicto
end_ol grestore 
gsave 32.971854 3.093750 translate 0.035278 -0.035278 scale
start_ol
896 3456 moveto
896 2688 lineto
1792 2688 lineto
1792 2368 lineto
896 2368 lineto
896 902 lineto
896 572 984 478 conicto
1073 384 1345 384 conicto
1792 384 lineto
1792 0 lineto
1345 0 lineto
836 0 642 194 conicto
448 389 448 902 conicto
448 2368 lineto
128 2368 lineto
128 2688 lineto
448 2688 lineto
448 3456 lineto
896 3456 lineto
end_ol grestore 
gsave 33.221621 3.093750 translate 0.035278 -0.035278 scale
start_ol
1622 1344 moveto
1104 1344 904 1225 conicto
704 1106 704 818 conicto
704 589 854 454 conicto
1004 320 1262 320 conicto
1618 320 1833 572 conicto
2048 825 2048 1244 conicto
2048 1344 lineto
1622 1344 lineto
2496 1513 moveto
2496 0 lineto
2048 0 lineto
2048 384 lineto
1900 154 1679 45 conicto
1458 -64 1138 -64 conicto
733 -64 494 162 conicto
256 389 256 769 conicto
256 1213 555 1438 conicto
854 1664 1448 1664 conicto
2048 1664 lineto
2048 1712 lineto
2048 2025 1851 2196 conicto
1655 2368 1300 2368 conicto
1074 2368 860 2320 conicto
646 2272 448 2176 conicto
448 2560 lineto
687 2656 912 2704 conicto
1138 2752 1351 2752 conicto
1927 2752 2211 2444 conicto
2496 2137 2496 1513 conicto
end_ol grestore 
gsave 33.613750 3.093750 translate 0.035278 -0.035278 scale
start_ol
1984 2304 moveto
1912 2337 1828 2352 conicto
1744 2368 1642 2368 conicto
1282 2368 1089 2127 conicto
896 1887 896 1437 conicto
896 0 lineto
448 0 lineto
448 2688 lineto
896 2688 lineto
896 2304 lineto
1030 2531 1245 2641 conicto
1460 2752 1767 2752 conicto
1811 2752 1864 2752 conicto
1917 2752 1982 2752 conicto
1984 2304 lineto
end_ol grestore 
gsave 33.876001 3.093750 translate 0.035278 -0.035278 scale
start_ol
896 3456 moveto
896 2688 lineto
1792 2688 lineto
1792 2368 lineto
896 2368 lineto
896 902 lineto
896 572 984 478 conicto
1073 384 1345 384 conicto
1792 384 lineto
1792 0 lineto
1345 0 lineto
836 0 642 194 conicto
448 389 448 902 conicto
448 2368 lineto
128 2368 lineto
128 2688 lineto
448 2688 lineto
448 3456 lineto
896 3456 lineto
end_ol grestore 
gsave 34.125768 3.093750 translate 0.035278 -0.035278 scale
start_ol
448 1040 moveto
448 2688 lineto
896 2688 lineto
896 1057 lineto
896 689 1042 504 conicto
1188 320 1481 320 conicto
1832 320 2036 541 conicto
2240 763 2240 1145 conicto
2240 2688 lineto
2688 2688 lineto
2688 0 lineto
2240 0 lineto
2240 384 lineto
2081 157 1870 46 conicto
1660 -64 1382 -64 conicto
923 -64 685 217 conicto
448 499 448 1040 conicto
1554 2752 moveto
1554 2752 lineto
end_ol grestore 
gsave 34.530382 3.093750 translate 0.035278 -0.035278 scale
start_ol
896 384 moveto
896 -1024 lineto
448 -1024 lineto
448 2688 lineto
896 2688 lineto
896 2304 lineto
1032 2531 1240 2641 conicto
1448 2752 1737 2752 conicto
2217 2752 2516 2364 conicto
2816 1976 2816 1344 conicto
2816 712 2516 324 conicto
2217 -64 1737 -64 conicto
1448 -64 1240 46 conicto
1032 157 896 384 conicto
2368 1344 moveto
2368 1823 2171 2095 conicto
1975 2368 1632 2368 conicto
1289 2368 1092 2095 conicto
896 1823 896 1344 conicto
896 865 1092 592 conicto
1289 320 1632 320 conicto
1975 320 2171 592 conicto
2368 865 2368 1344 conicto
end_ol grestore 
gsave 34.937501 3.093750 translate 0.035278 -0.035278 scale
start_ol
1254 3520 moveto
1664 3520 lineto
410 -448 lineto
0 -448 lineto
1254 3520 lineto
end_ol grestore 
gsave 35.152293 3.093750 translate 0.035278 -0.035278 scale
start_ol
2624 3392 moveto
2624 2944 lineto
2352 3073 2111 3136 conicto
1870 3200 1645 3200 conicto
1255 3200 1043 3052 conicto
832 2904 832 2631 conicto
832 2402 969 2285 conicto
1107 2169 1491 2097 conicto
1773 2039 lineto
2308 1937 2562 1678 conicto
2816 1420 2816 986 conicto
2816 469 2468 202 conicto
2121 -64 1450 -64 conicto
1197 -64 911 0 conicto
626 65 320 192 conicto
320 704 lineto
613 513 893 416 conicto
1174 320 1445 320 conicto
1857 320 2080 485 conicto
2304 650 2304 955 conicto
2304 1221 2148 1371 conicto
1992 1522 1636 1597 conicto
1352 1652 lineto
807 1756 563 1978 conicto
320 2201 320 2597 conicto
320 3056 654 3320 conicto
989 3584 1576 3584 conicto
1828 3584 2089 3536 conicto
2351 3488 2624 3392 conicto
end_ol grestore 
gsave 35.559413 3.093750 translate 0.035278 -0.035278 scale
start_ol
896 3456 moveto
896 2688 lineto
1792 2688 lineto
1792 2368 lineto
896 2368 lineto
896 902 lineto
896 572 984 478 conicto
1073 384 1345 384 conicto
1792 384 lineto
1792 0 lineto
1345 0 lineto
836 0 642 194 conicto
448 389 448 902 conicto
448 2368 lineto
128 2368 lineto
128 2688 lineto
448 2688 lineto
448 3456 lineto
896 3456 lineto
end_ol grestore 
gsave 35.809179 3.093750 translate 0.035278 -0.035278 scale
start_ol
1622 1344 moveto
1104 1344 904 1225 conicto
704 1106 704 818 conicto
704 589 854 454 conicto
1004 320 1262 320 conicto
1618 320 1833 572 conicto
2048 825 2048 1244 conicto
2048 1344 lineto
1622 1344 lineto
2496 1513 moveto
2496 0 lineto
2048 0 lineto
2048 384 lineto
1900 154 1679 45 conicto
1458 -64 1138 -64 conicto
733 -64 494 162 conicto
256 389 256 769 conicto
256 1213 555 1438 conicto
854 1664 1448 1664 conicto
2048 1664 lineto
2048 1712 lineto
2048 2025 1851 2196 conicto
1655 2368 1300 2368 conicto
1074 2368 860 2320 conicto
646 2272 448 2176 conicto
448 2560 lineto
687 2656 912 2704 conicto
1138 2752 1351 2752 conicto
1927 2752 2211 2444 conicto
2496 2137 2496 1513 conicto
end_ol grestore 
gsave 36.201308 3.093750 translate 0.035278 -0.035278 scale
start_ol
1984 2304 moveto
1912 2337 1828 2352 conicto
1744 2368 1642 2368 conicto
1282 2368 1089 2127 conicto
896 1887 896 1437 conicto
896 0 lineto
448 0 lineto
448 2688 lineto
896 2688 lineto
896 2304 lineto
1030 2531 1245 2641 conicto
1460 2752 1767 2752 conicto
1811 2752 1864 2752 conicto
1917 2752 1982 2752 conicto
1984 2304 lineto
end_ol grestore 
gsave 36.463560 3.093750 translate 0.035278 -0.035278 scale
start_ol
896 3456 moveto
896 2688 lineto
1792 2688 lineto
1792 2368 lineto
896 2368 lineto
896 902 lineto
896 572 984 478 conicto
1073 384 1345 384 conicto
1792 384 lineto
1792 0 lineto
1345 0 lineto
836 0 642 194 conicto
448 389 448 902 conicto
448 2368 lineto
128 2368 lineto
128 2688 lineto
448 2688 lineto
448 3456 lineto
896 3456 lineto
end_ol grestore 
gsave 36.713327 3.093750 translate 0.035278 -0.035278 scale
start_ol
448 1040 moveto
448 2688 lineto
896 2688 lineto
896 1057 lineto
896 689 1042 504 conicto
1188 320 1481 320 conicto
1832 320 2036 541 conicto
2240 763 2240 1145 conicto
2240 2688 lineto
2688 2688 lineto
2688 0 lineto
2240 0 lineto
2240 384 lineto
2081 157 1870 46 conicto
1660 -64 1382 -64 conicto
923 -64 685 217 conicto
448 499 448 1040 conicto
1554 2752 moveto
1554 2752 lineto
end_ol grestore 
gsave 37.117941 3.093750 translate 0.035278 -0.035278 scale
start_ol
896 384 moveto
896 -1024 lineto
448 -1024 lineto
448 2688 lineto
896 2688 lineto
896 2304 lineto
1032 2531 1240 2641 conicto
1448 2752 1737 2752 conicto
2217 2752 2516 2364 conicto
2816 1976 2816 1344 conicto
2816 712 2516 324 conicto
2217 -64 1737 -64 conicto
1448 -64 1240 46 conicto
1032 157 896 384 conicto
2368 1344 moveto
2368 1823 2171 2095 conicto
1975 2368 1632 2368 conicto
1289 2368 1092 2095 conicto
896 1823 896 1344 conicto
896 865 1092 592 conicto
1289 320 1632 320 conicto
1975 320 2171 592 conicto
2368 865 2368 1344 conicto
end_ol grestore 
0.100000 slw
[] 0 sd
1.000000 1.000000 1.000000 srgb
n 40.600000 3.037500 m 40.600000 5.637500 l 46.622500 5.637500 l 46.622500 3.037500 l f
n 40.600000 3.537500 m 40.600000 3.537500 0.500000 0.500000 180.000000 270.000000 ellipse f
n 46.622500 3.537500 m 46.622500 3.537500 0.500000 0.500000 270.000000 360.000000 ellipse f
n 40.100000 3.537500 m 40.100000 5.137500 l 47.122500 5.137500 l 47.122500 3.537500 l f
n 40.600000 5.137500 m 40.600000 5.137500 0.500000 0.500000 90.000000 180.000000 ellipse f
n 46.622500 5.137500 m 46.622500 5.137500 0.500000 0.500000 0.000000 90.000000 ellipse f
0.000000 0.000000 0.000000 srgb
n 40.600000 3.037500 m 46.622500 3.037500 l s
n 40.600000 5.637500 m 46.622500 5.637500 l s
n 40.600000 3.537500 0.500000 0.500000 180.000000 270.000000 ellipse s
n 46.622500 3.537500 0.500000 0.500000 270.000000 360.000000 ellipse s
n 40.100000 3.537500 m 40.100000 5.137500 l s
n 47.122500 3.537500 m 47.122500 5.137500 l s
n 40.600000 5.137500 0.500000 0.500000 90.000000 180.000000 ellipse s
n 46.622500 5.137500 0.500000 0.500000 0.000000 90.000000 ellipse s
gsave 42.308750 4.132500 translate 0.035278 -0.035278 scale
start_ol
2624 3392 moveto
2624 2944 lineto
2352 3073 2111 3136 conicto
1870 3200 1645 3200 conicto
1255 3200 1043 3052 conicto
832 2904 832 2631 conicto
832 2402 969 2285 conicto
1107 2169 1491 2097 conicto
1773 2039 lineto
2308 1937 2562 1678 conicto
2816 1420 2816 986 conicto
2816 469 2468 202 conicto
2121 -64 1450 -64 conicto
1197 -64 911 0 conicto
626 65 320 192 conicto
320 704 lineto
613 513 893 416 conicto
1174 320 1445 320 conicto
1857 320 2080 485 conicto
2304 650 2304 955 conicto
2304 1221 2148 1371 conicto
1992 1522 1636 1597 conicto
1352 1652 lineto
807 1756 563 1978 conicto
320 2201 320 2597 conicto
320 3056 654 3320 conicto
989 3584 1576 3584 conicto
1828 3584 2089 3536 conicto
2351 3488 2624 3392 conicto
end_ol grestore 
gsave 42.715869 4.132500 translate 0.035278 -0.035278 scale
start_ol
2752 1480 moveto
2752 1280 lineto
704 1280 lineto
733 811 978 565 conicto
1223 320 1660 320 conicto
1914 320 2152 384 conicto
2390 448 2624 576 conicto
2624 192 lineto
2388 67 2140 1 conicto
1893 -64 1639 -64 conicto
1001 -64 628 309 conicto
256 683 256 1320 conicto
256 1979 613 2365 conicto
970 2752 1576 2752 conicto
2120 2752 2436 2410 conicto
2752 2068 2752 1480 conicto
2304 1600 moveto
2299 1950 2099 2159 conicto
1900 2368 1572 2368 conicto
1200 2368 976 2166 conicto
753 1964 719 1597 conicto
2304 1600 lineto
end_ol grestore 
gsave 43.110495 4.132500 translate 0.035278 -0.035278 scale
start_ol
2688 1646 moveto
2688 0 lineto
2240 0 lineto
2240 1632 lineto
2240 2001 2093 2184 conicto
1947 2368 1654 2368 conicto
1302 2368 1099 2146 conicto
896 1925 896 1542 conicto
896 0 lineto
448 0 lineto
448 2688 lineto
896 2688 lineto
896 2304 lineto
1053 2529 1266 2640 conicto
1479 2752 1757 2752 conicto
2217 2752 2452 2471 conicto
2688 2191 2688 1646 conicto
end_ol grestore 
gsave 43.515109 4.132500 translate 0.035278 -0.035278 scale
start_ol
2176 2304 moveto
2176 3712 lineto
2624 3712 lineto
2624 0 lineto
2176 0 lineto
2176 384 lineto
2040 157 1832 46 conicto
1624 -64 1332 -64 conicto
855 -64 555 324 conicto
256 712 256 1344 conicto
256 1976 555 2364 conicto
855 2752 1332 2752 conicto
1624 2752 1832 2641 conicto
2040 2531 2176 2304 conicto
704 1344 moveto
704 865 900 592 conicto
1096 320 1439 320 conicto
1782 320 1979 592 conicto
2176 865 2176 1344 conicto
2176 1823 1979 2095 conicto
1782 2368 1439 2368 conicto
1096 2368 900 2095 conicto
704 1823 704 1344 conicto
end_ol grestore 
gsave 43.922229 4.132500 translate 0.035278 -0.035278 scale
start_ol
448 2688 moveto
896 2688 lineto
896 0 lineto
448 0 lineto
448 2688 lineto
448 3712 moveto
896 3712 lineto
896 3136 lineto
448 3136 lineto
448 3712 lineto
end_ol grestore 
gsave 44.099557 4.132500 translate 0.035278 -0.035278 scale
start_ol
2688 1646 moveto
2688 0 lineto
2240 0 lineto
2240 1632 lineto
2240 2001 2093 2184 conicto
1947 2368 1654 2368 conicto
1302 2368 1099 2146 conicto
896 1925 896 1542 conicto
896 0 lineto
448 0 lineto
448 2688 lineto
896 2688 lineto
896 2304 lineto
1053 2529 1266 2640 conicto
1479 2752 1757 2752 conicto
2217 2752 2452 2471 conicto
2688 2191 2688 1646 conicto
end_ol grestore 
gsave 44.504172 4.132500 translate 0.035278 -0.035278 scale
start_ol
2176 1375 moveto
2176 1848 1982 2108 conicto
1789 2368 1439 2368 conicto
1091 2368 897 2108 conicto
704 1848 704 1375 conicto
704 904 897 644 conicto
1091 384 1439 384 conicto
1789 384 1982 644 conicto
2176 904 2176 1375 conicto
2624 347 moveto
2624 -347 2323 -685 conicto
2023 -1024 1404 -1024 conicto
1174 -1024 971 -992 conicto
768 -961 576 -896 conicto
576 -448 lineto
766 -546 951 -593 conicto
1137 -640 1329 -640 conicto
1754 -640 1965 -415 conicto
2176 -190 2176 264 conicto
2176 448 lineto
2042 223 1833 111 conicto
1624 0 1332 0 conicto
848 0 552 376 conicto
256 753 256 1375 conicto
256 1999 552 2375 conicto
848 2752 1332 2752 conicto
1624 2752 1833 2640 conicto
2042 2529 2176 2304 conicto
2176 2688 lineto
2624 2688 lineto
2624 347 lineto
end_ol grestore 
gsave 40.600000 4.932500 translate 0.035278 -0.035278 scale
start_ol
2752 1480 moveto
2752 1280 lineto
704 1280 lineto
733 811 978 565 conicto
1223 320 1660 320 conicto
1914 320 2152 384 conicto
2390 448 2624 576 conicto
2624 192 lineto
2388 67 2140 1 conicto
1893 -64 1639 -64 conicto
1001 -64 628 309 conicto
256 683 256 1320 conicto
256 1979 613 2365 conicto
970 2752 1576 2752 conicto
2120 2752 2436 2410 conicto
2752 2068 2752 1480 conicto
2304 1600 moveto
2299 1950 2099 2159 conicto
1900 2368 1572 2368 conicto
1200 2368 976 2166 conicto
753 1964 719 1597 conicto
2304 1600 lineto
end_ol grestore 
gsave 40.994626 4.932500 translate 0.035278 -0.035278 scale
start_ol
2688 1646 moveto
2688 0 lineto
2240 0 lineto
2240 1632 lineto
2240 2001 2093 2184 conicto
1947 2368 1654 2368 conicto
1302 2368 1099 2146 conicto
896 1925 896 1542 conicto
896 0 lineto
448 0 lineto
448 2688 lineto
896 2688 lineto
896 2304 lineto
1053 2529 1266 2640 conicto
1479 2752 1757 2752 conicto
2217 2752 2452 2471 conicto
2688 2191 2688 1646 conicto
end_ol grestore 
gsave 41.399240 4.932500 translate 0.035278 -0.035278 scale
start_ol
896 3456 moveto
896 2688 lineto
1792 2688 lineto
1792 2368 lineto
896 2368 lineto
896 902 lineto
896 572 984 478 conicto
1073 384 1345 384 conicto
1792 384 lineto
1792 0 lineto
1345 0 lineto
836 0 642 194 conicto
448 389 448 902 conicto
448 2368 lineto
128 2368 lineto
128 2688 lineto
448 2688 lineto
448 3456 lineto
896 3456 lineto
end_ol grestore 
gsave 41.649007 4.932500 translate 0.035278 -0.035278 scale
start_ol
1984 2304 moveto
1912 2337 1828 2352 conicto
1744 2368 1642 2368 conicto
1282 2368 1089 2127 conicto
896 1887 896 1437 conicto
896 0 lineto
448 0 lineto
448 2688 lineto
896 2688 lineto
896 2304 lineto
1030 2531 1245 2641 conicto
1460 2752 1767 2752 conicto
1811 2752 1864 2752 conicto
1917 2752 1982 2752 conicto
1984 2304 lineto
end_ol grestore 
gsave 41.911258 4.932500 translate 0.035278 -0.035278 scale
start_ol
1542 -238 moveto
1360 -726 1187 -875 conicto
1015 -1024 726 -1024 conicto
384 -1024 lineto
384 -640 lineto
636 -640 lineto
813 -640 910 -555 conicto
1008 -470 1127 -155 conicto
1204 46 lineto
128 2688 lineto
603 2688 lineto
1418 586 lineto
2234 2688 lineto
2688 2688 lineto
1542 -238 lineto
end_ol grestore 
gsave 42.290902 4.932500 translate 0.035278 -0.035278 scale
start_ol
1254 3520 moveto
1664 3520 lineto
410 -448 lineto
0 -448 lineto
1254 3520 lineto
end_ol grestore 
gsave 42.505695 4.932500 translate 0.035278 -0.035278 scale
start_ol
end_ol grestore 
gsave 42.708002 4.932500 translate 0.035278 -0.035278 scale
start_ol
2624 3392 moveto
2624 2944 lineto
2352 3073 2111 3136 conicto
1870 3200 1645 3200 conicto
1255 3200 1043 3052 conicto
832 2904 832 2631 conicto
832 2402 969 2285 conicto
1107 2169 1491 2097 conicto
1773 2039 lineto
2308 1937 2562 1678 conicto
2816 1420 2816 986 conicto
2816 469 2468 202 conicto
2121 -64 1450 -64 conicto
1197 -64 911 0 conicto
626 65 320 192 conicto
320 704 lineto
613 513 893 416 conicto
1174 320 1445 320 conicto
1857 320 2080 485 conicto
2304 650 2304 955 conicto
2304 1221 2148 1371 conicto
1992 1522 1636 1597 conicto
1352 1652 lineto
807 1756 563 1978 conicto
320 2201 320 2597 conicto
320 3056 654 3320 conicto
989 3584 1576 3584 conicto
1828 3584 2089 3536 conicto
2351 3488 2624 3392 conicto
end_ol grestore 
gsave 43.115121 4.932500 translate 0.035278 -0.035278 scale
start_ol
2752 1480 moveto
2752 1280 lineto
704 1280 lineto
733 811 978 565 conicto
1223 320 1660 320 conicto
1914 320 2152 384 conicto
2390 448 2624 576 conicto
2624 192 lineto
2388 67 2140 1 conicto
1893 -64 1639 -64 conicto
1001 -64 628 309 conicto
256 683 256 1320 conicto
256 1979 613 2365 conicto
970 2752 1576 2752 conicto
2120 2752 2436 2410 conicto
2752 2068 2752 1480 conicto
2304 1600 moveto
2299 1950 2099 2159 conicto
1900 2368 1572 2368 conicto
1200 2368 976 2166 conicto
753 1964 719 1597 conicto
2304 1600 lineto
end_ol grestore 
gsave 43.509747 4.932500 translate 0.035278 -0.035278 scale
start_ol
2688 1646 moveto
2688 0 lineto
2240 0 lineto
2240 1632 lineto
2240 2001 2093 2184 conicto
1947 2368 1654 2368 conicto
1302 2368 1099 2146 conicto
896 1925 896 1542 conicto
896 0 lineto
448 0 lineto
448 2688 lineto
896 2688 lineto
896 2304 lineto
1053 2529 1266 2640 conicto
1479 2752 1757 2752 conicto
2217 2752 2452 2471 conicto
2688 2191 2688 1646 conicto
end_ol grestore 
gsave 43.914361 4.932500 translate 0.035278 -0.035278 scale
start_ol
2176 2304 moveto
2176 3712 lineto
2624 3712 lineto
2624 0 lineto
2176 0 lineto
2176 384 lineto
2040 157 1832 46 conicto
1624 -64 1332 -64 conicto
855 -64 555 324 conicto
256 712 256 1344 conicto
256 1976 555 2364 conicto
855 2752 1332 2752 conicto
1624 2752 1832 2641 conicto
2040 2531 2176 2304 conicto
704 1344 moveto
704 865 900 592 conicto
1096 320 1439 320 conicto
1782 320 1979 592 conicto
2176 865 2176 1344 conicto
2176 1823 1979 2095 conicto
1782 2368 1439 2368 conicto
1096 2368 900 2095 conicto
704 1823 704 1344 conicto
end_ol grestore 
gsave 44.321480 4.932500 translate 0.035278 -0.035278 scale
start_ol
end_ol grestore 
gsave 44.523787 4.932500 translate 0.035278 -0.035278 scale
start_ol
960 3136 moveto
960 1792 lineto
1552 1792 lineto
1881 1792 2060 1967 conicto
2240 2142 2240 2465 conicto
2240 2786 2060 2961 conicto
1881 3136 1552 3136 conicto
960 3136 lineto
448 3520 moveto
1552 3520 lineto
2145 3520 2448 3251 conicto
2752 2983 2752 2465 conicto
2752 1943 2448 1675 conicto
2145 1408 1552 1408 conicto
960 1408 lineto
960 0 lineto
448 0 lineto
448 3520 lineto
end_ol grestore 
gsave 44.880950 4.932500 translate 0.035278 -0.035278 scale
start_ol
1622 1344 moveto
1104 1344 904 1225 conicto
704 1106 704 818 conicto
704 589 854 454 conicto
1004 320 1262 320 conicto
1618 320 1833 572 conicto
2048 825 2048 1244 conicto
2048 1344 lineto
1622 1344 lineto
2496 1513 moveto
2496 0 lineto
2048 0 lineto
2048 384 lineto
1900 154 1679 45 conicto
1458 -64 1138 -64 conicto
733 -64 494 162 conicto
256 389 256 769 conicto
256 1213 555 1438 conicto
854 1664 1448 1664 conicto
2048 1664 lineto
2048 1712 lineto
2048 2025 1851 2196 conicto
1655 2368 1300 2368 conicto
1074 2368 860 2320 conicto
646 2272 448 2176 conicto
448 2560 lineto
687 2656 912 2704 conicto
1138 2752 1351 2752 conicto
1927 2752 2211 2444 conicto
2496 2137 2496 1513 conicto
end_ol grestore 
gsave 45.273079 4.932500 translate 0.035278 -0.035278 scale
start_ol
2368 2560 moveto
2368 2176 lineto
2180 2272 1991 2320 conicto
1803 2368 1611 2368 conicto
1180 2368 942 2099 conicto
704 1830 704 1344 conicto
704 858 942 589 conicto
1180 320 1611 320 conicto
1803 320 1991 368 conicto
2180 416 2368 512 conicto
2368 128 lineto
2184 32 1987 -16 conicto
1791 -64 1569 -64 conicto
966 -64 611 316 conicto
256 697 256 1344 conicto
256 2000 615 2376 conicto
974 2752 1598 2752 conicto
1801 2752 1994 2704 conicto
2187 2656 2368 2560 conicto
end_ol grestore 
gsave 45.625248 4.932500 translate 0.035278 -0.035278 scale
start_ol
448 3712 moveto
896 3712 lineto
896 1529 lineto
2196 2688 lineto
2752 2688 lineto
1346 1430 lineto
2816 0 lineto
2246 0 lineto
896 1313 lineto
896 0 lineto
448 0 lineto
448 3712 lineto
end_ol grestore 
gsave 45.972422 4.932500 translate 0.035278 -0.035278 scale
start_ol
2752 1480 moveto
2752 1280 lineto
704 1280 lineto
733 811 978 565 conicto
1223 320 1660 320 conicto
1914 320 2152 384 conicto
2390 448 2624 576 conicto
2624 192 lineto
2388 67 2140 1 conicto
1893 -64 1639 -64 conicto
1001 -64 628 309 conicto
256 683 256 1320 conicto
256 1979 613 2365 conicto
970 2752 1576 2752 conicto
2120 2752 2436 2410 conicto
2752 2068 2752 1480 conicto
2304 1600 moveto
2299 1950 2099 2159 conicto
1900 2368 1572 2368 conicto
1200 2368 976 2166 conicto
753 1964 719 1597 conicto
2304 1600 lineto
end_ol grestore 
gsave 46.367049 4.932500 translate 0.035278 -0.035278 scale
start_ol
896 3456 moveto
896 2688 lineto
1792 2688 lineto
1792 2368 lineto
896 2368 lineto
896 902 lineto
896 572 984 478 conicto
1073 384 1345 384 conicto
1792 384 lineto
1792 0 lineto
1345 0 lineto
836 0 642 194 conicto
448 389 448 902 conicto
448 2368 lineto
128 2368 lineto
128 2688 lineto
448 2688 lineto
448 3456 lineto
896 3456 lineto
end_ol grestore 
n 40.100000 4.337500 m 47.122500 4.337500 l s
0.100000 slw
0 slc
[] 0 sd
n 43.611300 5.637500 m 43.611300 7.387500 l 28.050000 7.387500 l 28.050000 12.976393 l s
0.100000 slw
[] 0 sd
0 slj
0 slc
n 27.800000 12.588197 m 28.050000 13.088197 l 28.300000 12.588197 l s
gsave 39.222500 6.731480 translate 0.035278 -0.035278 scale
start_ol
960 3136 moveto
960 1792 lineto
1552 1792 lineto
1881 1792 2060 1967 conicto
2240 2142 2240 2465 conicto
2240 2786 2060 2961 conicto
1881 3136 1552 3136 conicto
960 3136 lineto
448 3520 moveto
1552 3520 lineto
2145 3520 2448 3251 conicto
2752 2983 2752 2465 conicto
2752 1943 2448 1675 conicto
2145 1408 1552 1408 conicto
960 1408 lineto
960 0 lineto
448 0 lineto
448 3520 lineto
end_ol grestore 
gsave 39.579663 6.731480 translate 0.035278 -0.035278 scale
start_ol
1622 1344 moveto
1104 1344 904 1225 conicto
704 1106 704 818 conicto
704 589 854 454 conicto
1004 320 1262 320 conicto
1618 320 1833 572 conicto
2048 825 2048 1244 conicto
2048 1344 lineto
1622 1344 lineto
2496 1513 moveto
2496 0 lineto
2048 0 lineto
2048 384 lineto
1900 154 1679 45 conicto
1458 -64 1138 -64 conicto
733 -64 494 162 conicto
256 389 256 769 conicto
256 1213 555 1438 conicto
854 1664 1448 1664 conicto
2048 1664 lineto
2048 1712 lineto
2048 2025 1851 2196 conicto
1655 2368 1300 2368 conicto
1074 2368 860 2320 conicto
646 2272 448 2176 conicto
448 2560 lineto
687 2656 912 2704 conicto
1138 2752 1351 2752 conicto
1927 2752 2211 2444 conicto
2496 2137 2496 1513 conicto
end_ol grestore 
gsave 39.971792 6.731480 translate 0.035278 -0.035278 scale
start_ol
2368 2560 moveto
2368 2176 lineto
2180 2272 1991 2320 conicto
1803 2368 1611 2368 conicto
1180 2368 942 2099 conicto
704 1830 704 1344 conicto
704 858 942 589 conicto
1180 320 1611 320 conicto
1803 320 1991 368 conicto
2180 416 2368 512 conicto
2368 128 lineto
2184 32 1987 -16 conicto
1791 -64 1569 -64 conicto
966 -64 611 316 conicto
256 697 256 1344 conicto
256 2000 615 2376 conicto
974 2752 1598 2752 conicto
1801 2752 1994 2704 conicto
2187 2656 2368 2560 conicto
end_ol grestore 
gsave 40.323960 6.731480 translate 0.035278 -0.035278 scale
start_ol
448 3712 moveto
896 3712 lineto
896 1529 lineto
2196 2688 lineto
2752 2688 lineto
1346 1430 lineto
2816 0 lineto
2246 0 lineto
896 1313 lineto
896 0 lineto
448 0 lineto
448 3712 lineto
end_ol grestore 
gsave 40.671135 6.731480 translate 0.035278 -0.035278 scale
start_ol
2752 1480 moveto
2752 1280 lineto
704 1280 lineto
733 811 978 565 conicto
1223 320 1660 320 conicto
1914 320 2152 384 conicto
2390 448 2624 576 conicto
2624 192 lineto
2388 67 2140 1 conicto
1893 -64 1639 -64 conicto
1001 -64 628 309 conicto
256 683 256 1320 conicto
256 1979 613 2365 conicto
970 2752 1576 2752 conicto
2120 2752 2436 2410 conicto
2752 2068 2752 1480 conicto
2304 1600 moveto
2299 1950 2099 2159 conicto
1900 2368 1572 2368 conicto
1200 2368 976 2166 conicto
753 1964 719 1597 conicto
2304 1600 lineto
end_ol grestore 
gsave 41.065761 6.731480 translate 0.035278 -0.035278 scale
start_ol
896 3456 moveto
896 2688 lineto
1792 2688 lineto
1792 2368 lineto
896 2368 lineto
896 902 lineto
896 572 984 478 conicto
1073 384 1345 384 conicto
1792 384 lineto
1792 0 lineto
1345 0 lineto
836 0 642 194 conicto
448 389 448 902 conicto
448 2368 lineto
128 2368 lineto
128 2688 lineto
448 2688 lineto
448 3456 lineto
896 3456 lineto
end_ol grestore 
gsave 41.315528 6.731480 translate 0.035278 -0.035278 scale
start_ol
end_ol grestore 
gsave 41.517835 6.731480 translate 0.035278 -0.035278 scale
start_ol
2624 3392 moveto
2624 2944 lineto
2352 3073 2111 3136 conicto
1870 3200 1645 3200 conicto
1255 3200 1043 3052 conicto
832 2904 832 2631 conicto
832 2402 969 2285 conicto
1107 2169 1491 2097 conicto
1773 2039 lineto
2308 1937 2562 1678 conicto
2816 1420 2816 986 conicto
2816 469 2468 202 conicto
2121 -64 1450 -64 conicto
1197 -64 911 0 conicto
626 65 320 192 conicto
320 704 lineto
613 513 893 416 conicto
1174 320 1445 320 conicto
1857 320 2080 485 conicto
2304 650 2304 955 conicto
2304 1221 2148 1371 conicto
1992 1522 1636 1597 conicto
1352 1652 lineto
807 1756 563 1978 conicto
320 2201 320 2597 conicto
320 3056 654 3320 conicto
989 3584 1576 3584 conicto
1828 3584 2089 3536 conicto
2351 3488 2624 3392 conicto
end_ol grestore 
gsave 41.924954 6.731480 translate 0.035278 -0.035278 scale
start_ol
2752 1480 moveto
2752 1280 lineto
704 1280 lineto
733 811 978 565 conicto
1223 320 1660 320 conicto
1914 320 2152 384 conicto
2390 448 2624 576 conicto
2624 192 lineto
2388 67 2140 1 conicto
1893 -64 1639 -64 conicto
1001 -64 628 309 conicto
256 683 256 1320 conicto
256 1979 613 2365 conicto
970 2752 1576 2752 conicto
2120 2752 2436 2410 conicto
2752 2068 2752 1480 conicto
2304 1600 moveto
2299 1950 2099 2159 conicto
1900 2368 1572 2368 conicto
1200 2368 976 2166 conicto
753 1964 719 1597 conicto
2304 1600 lineto
end_ol grestore 
gsave 42.319580 6.731480 translate 0.035278 -0.035278 scale
start_ol
2688 1646 moveto
2688 0 lineto
2240 0 lineto
2240 1632 lineto
2240 2001 2093 2184 conicto
1947 2368 1654 2368 conicto
1302 2368 1099 2146 conicto
896 1925 896 1542 conicto
896 0 lineto
448 0 lineto
448 2688 lineto
896 2688 lineto
896 2304 lineto
1053 2529 1266 2640 conicto
1479 2752 1757 2752 conicto
2217 2752 2452 2471 conicto
2688 2191 2688 1646 conicto
end_ol grestore 
gsave 42.724194 6.731480 translate 0.035278 -0.035278 scale
start_ol
896 3456 moveto
896 2688 lineto
1792 2688 lineto
1792 2368 lineto
896 2368 lineto
896 902 lineto
896 572 984 478 conicto
1073 384 1345 384 conicto
1792 384 lineto
1792 0 lineto
1345 0 lineto
836 0 642 194 conicto
448 389 448 902 conicto
448 2368 lineto
128 2368 lineto
128 2688 lineto
448 2688 lineto
448 3456 lineto
896 3456 lineto
end_ol grestore 
0.100000 slw
0 slc
[] 0 sd
n 30.050000 14.100000 m 35.624817 14.100000 l 35.624817 13.487500 l 40.976026 13.487500 l s
0.100000 slw
[] 0 sd
0 slj
0 slc
n 40.587830 13.737500 m 41.087830 13.487500 l 40.587830 13.237500 l s
gsave 35.241267 13.137500 translate 0.035278 -0.035278 scale
start_ol
960 3136 moveto
960 1792 lineto
1552 1792 lineto
1881 1792 2060 1967 conicto
2240 2142 2240 2465 conicto
2240 2786 2060 2961 conicto
1881 3136 1552 3136 conicto
960 3136 lineto
448 3520 moveto
1552 3520 lineto
2145 3520 2448 3251 conicto
2752 2983 2752 2465 conicto
2752 1943 2448 1675 conicto
2145 1408 1552 1408 conicto
960 1408 lineto
960 0 lineto
448 0 lineto
448 3520 lineto
end_ol grestore 
gsave 35.598429 13.137500 translate 0.035278 -0.035278 scale
start_ol
1622 1344 moveto
1104 1344 904 1225 conicto
704 1106 704 818 conicto
704 589 854 454 conicto
1004 320 1262 320 conicto
1618 320 1833 572 conicto
2048 825 2048 1244 conicto
2048 1344 lineto
1622 1344 lineto
2496 1513 moveto
2496 0 lineto
2048 0 lineto
2048 384 lineto
1900 154 1679 45 conicto
1458 -64 1138 -64 conicto
733 -64 494 162 conicto
256 389 256 769 conicto
256 1213 555 1438 conicto
854 1664 1448 1664 conicto
2048 1664 lineto
2048 1712 lineto
2048 2025 1851 2196 conicto
1655 2368 1300 2368 conicto
1074 2368 860 2320 conicto
646 2272 448 2176 conicto
448 2560 lineto
687 2656 912 2704 conicto
1138 2752 1351 2752 conicto
1927 2752 2211 2444 conicto
2496 2137 2496 1513 conicto
end_ol grestore 
gsave 35.990558 13.137500 translate 0.035278 -0.035278 scale
start_ol
2368 2560 moveto
2368 2176 lineto
2180 2272 1991 2320 conicto
1803 2368 1611 2368 conicto
1180 2368 942 2099 conicto
704 1830 704 1344 conicto
704 858 942 589 conicto
1180 320 1611 320 conicto
1803 320 1991 368 conicto
2180 416 2368 512 conicto
2368 128 lineto
2184 32 1987 -16 conicto
1791 -64 1569 -64 conicto
966 -64 611 316 conicto
256 697 256 1344 conicto
256 2000 615 2376 conicto
974 2752 1598 2752 conicto
1801 2752 1994 2704 conicto
2187 2656 2368 2560 conicto
end_ol grestore 
gsave 36.342727 13.137500 translate 0.035278 -0.035278 scale
start_ol
448 3712 moveto
896 3712 lineto
896 1529 lineto
2196 2688 lineto
2752 2688 lineto
1346 1430 lineto
2816 0 lineto
2246 0 lineto
896 1313 lineto
896 0 lineto
448 0 lineto
448 3712 lineto
end_ol grestore 
gsave 36.689902 13.137500 translate 0.035278 -0.035278 scale
start_ol
2752 1480 moveto
2752 1280 lineto
704 1280 lineto
733 811 978 565 conicto
1223 320 1660 320 conicto
1914 320 2152 384 conicto
2390 448 2624 576 conicto
2624 192 lineto
2388 67 2140 1 conicto
1893 -64 1639 -64 conicto
1001 -64 628 309 conicto
256 683 256 1320 conicto
256 1979 613 2365 conicto
970 2752 1576 2752 conicto
2120 2752 2436 2410 conicto
2752 2068 2752 1480 conicto
2304 1600 moveto
2299 1950 2099 2159 conicto
1900 2368 1572 2368 conicto
1200 2368 976 2166 conicto
753 1964 719 1597 conicto
2304 1600 lineto
end_ol grestore 
gsave 37.084528 13.137500 translate 0.035278 -0.035278 scale
start_ol
896 3456 moveto
896 2688 lineto
1792 2688 lineto
1792 2368 lineto
896 2368 lineto
896 902 lineto
896 572 984 478 conicto
1073 384 1345 384 conicto
1792 384 lineto
1792 0 lineto
1345 0 lineto
836 0 642 194 conicto
448 389 448 902 conicto
448 2368 lineto
128 2368 lineto
128 2688 lineto
448 2688 lineto
448 3456 lineto
896 3456 lineto
end_ol grestore 
gsave 37.334294 13.137500 translate 0.035278 -0.035278 scale
start_ol
end_ol grestore 
gsave 37.536601 13.137500 translate 0.035278 -0.035278 scale
start_ol
2140 1632 moveto
2295 1581 2442 1413 conicto
2590 1245 2738 952 conicto
3200 0 lineto
2709 0 lineto
2250 893 lineto
2077 1243 1915 1357 conicto
1753 1472 1473 1472 conicto
960 1472 lineto
960 0 lineto
448 0 lineto
448 3520 lineto
1552 3520 lineto
2157 3520 2454 3265 conicto
2752 3010 2752 2496 conicto
2752 2161 2595 1939 conicto
2439 1718 2140 1632 conicto
960 3136 moveto
960 1856 lineto
1552 1856 lineto
1893 1856 2066 2019 conicto
2240 2182 2240 2498 conicto
2240 2815 2066 2975 conicto
1893 3136 1552 3136 conicto
960 3136 lineto
end_ol grestore 
gsave 37.953709 13.137500 translate 0.035278 -0.035278 scale
start_ol
2752 1480 moveto
2752 1280 lineto
704 1280 lineto
733 811 978 565 conicto
1223 320 1660 320 conicto
1914 320 2152 384 conicto
2390 448 2624 576 conicto
2624 192 lineto
2388 67 2140 1 conicto
1893 -64 1639 -64 conicto
1001 -64 628 309 conicto
256 683 256 1320 conicto
256 1979 613 2365 conicto
970 2752 1576 2752 conicto
2120 2752 2436 2410 conicto
2752 2068 2752 1480 conicto
2304 1600 moveto
2299 1950 2099 2159 conicto
1900 2368 1572 2368 conicto
1200 2368 976 2166 conicto
753 1964 719 1597 conicto
2304 1600 lineto
end_ol grestore 
gsave 38.348335 13.137500 translate 0.035278 -0.035278 scale
start_ol
2368 2560 moveto
2368 2176 lineto
2180 2272 1991 2320 conicto
1803 2368 1611 2368 conicto
1180 2368 942 2099 conicto
704 1830 704 1344 conicto
704 858 942 589 conicto
1180 320 1611 320 conicto
1803 320 1991 368 conicto
2180 416 2368 512 conicto
2368 128 lineto
2184 32 1987 -16 conicto
1791 -64 1569 -64 conicto
966 -64 611 316 conicto
256 697 256 1344 conicto
256 2000 615 2376 conicto
974 2752 1598 2752 conicto
1801 2752 1994 2704 conicto
2187 2656 2368 2560 conicto
end_ol grestore 
gsave 38.700504 13.137500 translate 0.035278 -0.035278 scale
start_ol
2752 1480 moveto
2752 1280 lineto
704 1280 lineto
733 811 978 565 conicto
1223 320 1660 320 conicto
1914 320 2152 384 conicto
2390 448 2624 576 conicto
2624 192 lineto
2388 67 2140 1 conicto
1893 -64 1639 -64 conicto
1001 -64 628 309 conicto
256 683 256 1320 conicto
256 1979 613 2365 conicto
970 2752 1576 2752 conicto
2120 2752 2436 2410 conicto
2752 2068 2752 1480 conicto
2304 1600 moveto
2299 1950 2099 2159 conicto
1900 2368 1572 2368 conicto
1200 2368 976 2166 conicto
753 1964 719 1597 conicto
2304 1600 lineto
end_ol grestore 
gsave 39.095130 13.137500 translate 0.035278 -0.035278 scale
start_ol
448 2688 moveto
896 2688 lineto
896 0 lineto
448 0 lineto
448 2688 lineto
448 3712 moveto
896 3712 lineto
896 3136 lineto
448 3136 lineto
448 3712 lineto
end_ol grestore 
gsave 39.272458 13.137500 translate 0.035278 -0.035278 scale
start_ol
128 2688 moveto
586 2688 lineto
1408 432 lineto
2230 2688 lineto
2688 2688 lineto
1702 0 lineto
1114 0 lineto
128 2688 lineto
end_ol grestore 
gsave 39.652102 13.137500 translate 0.035278 -0.035278 scale
start_ol
2752 1480 moveto
2752 1280 lineto
704 1280 lineto
733 811 978 565 conicto
1223 320 1660 320 conicto
1914 320 2152 384 conicto
2390 448 2624 576 conicto
2624 192 lineto
2388 67 2140 1 conicto
1893 -64 1639 -64 conicto
1001 -64 628 309 conicto
256 683 256 1320 conicto
256 1979 613 2365 conicto
970 2752 1576 2752 conicto
2120 2752 2436 2410 conicto
2752 2068 2752 1480 conicto
2304 1600 moveto
2299 1950 2099 2159 conicto
1900 2368 1572 2368 conicto
1200 2368 976 2166 conicto
753 1964 719 1597 conicto
2304 1600 lineto
end_ol grestore 
gsave 40.046728 13.137500 translate 0.035278 -0.035278 scale
start_ol
2176 2304 moveto
2176 3712 lineto
2624 3712 lineto
2624 0 lineto
2176 0 lineto
2176 384 lineto
2040 157 1832 46 conicto
1624 -64 1332 -64 conicto
855 -64 555 324 conicto
256 712 256 1344 conicto
256 1976 555 2364 conicto
855 2752 1332 2752 conicto
1624 2752 1832 2641 conicto
2040 2531 2176 2304 conicto
704 1344 moveto
704 865 900 592 conicto
1096 320 1439 320 conicto
1782 320 1979 592 conicto
2176 865 2176 1344 conicto
2176 1823 1979 2095 conicto
1782 2368 1439 2368 conicto
1096 2368 900 2095 conicto
704 1823 704 1344 conicto
end_ol grestore 
0.100000 slw
[] 0 sd
1.000000 1.000000 1.000000 srgb
n 41.750000 12.587500 m 41.750000 14.387500 l 46.660000 14.387500 l 46.660000 12.587500 l f
n 41.750000 13.087500 m 41.750000 13.087500 0.500000 0.500000 180.000000 270.000000 ellipse f
n 46.660000 13.087500 m 46.660000 13.087500 0.500000 0.500000 270.000000 360.000000 ellipse f
n 41.250000 13.087500 m 41.250000 13.887500 l 47.160000 13.887500 l 47.160000 13.087500 l f
n 41.750000 13.887500 m 41.750000 13.887500 0.500000 0.500000 90.000000 180.000000 ellipse f
n 46.660000 13.887500 m 46.660000 13.887500 0.500000 0.500000 0.000000 90.000000 ellipse f
0.000000 0.000000 0.000000 srgb
n 41.750000 12.587500 m 46.660000 12.587500 l s
n 41.750000 14.387500 m 46.660000 14.387500 l s
n 41.750000 13.087500 0.500000 0.500000 180.000000 270.000000 ellipse s
n 46.660000 13.087500 0.500000 0.500000 270.000000 360.000000 ellipse s
n 41.250000 13.087500 m 41.250000 13.887500 l s
n 47.160000 13.087500 m 47.160000 13.887500 l s
n 41.750000 13.887500 0.500000 0.500000 90.000000 180.000000 ellipse s
n 46.660000 13.887500 0.500000 0.500000 0.000000 90.000000 ellipse s
gsave 41.750000 13.682500 translate 0.035278 -0.035278 scale
start_ol
448 3520 moveto
960 3520 lineto
960 1383 lineto
960 817 1156 568 conicto
1353 320 1793 320 conicto
2231 320 2427 568 conicto
2624 817 2624 1383 conicto
2624 3520 lineto
3136 3520 lineto
3136 1324 lineto
3136 637 2796 286 conicto
2456 -64 1793 -64 conicto
1128 -64 788 286 conicto
448 637 448 1324 conicto
448 3520 lineto
end_ol grestore 
gsave 42.217056 13.682500 translate 0.035278 -0.035278 scale
start_ol
896 384 moveto
896 -1024 lineto
448 -1024 lineto
448 2688 lineto
896 2688 lineto
896 2304 lineto
1032 2531 1240 2641 conicto
1448 2752 1737 2752 conicto
2217 2752 2516 2364 conicto
2816 1976 2816 1344 conicto
2816 712 2516 324 conicto
2217 -64 1737 -64 conicto
1448 -64 1240 46 conicto
1032 157 896 384 conicto
2368 1344 moveto
2368 1823 2171 2095 conicto
1975 2368 1632 2368 conicto
1289 2368 1092 2095 conicto
896 1823 896 1344 conicto
896 865 1092 592 conicto
1289 320 1632 320 conicto
1975 320 2171 592 conicto
2368 865 2368 1344 conicto
end_ol grestore 
gsave 42.624175 13.682500 translate 0.035278 -0.035278 scale
start_ol
2176 2304 moveto
2176 3712 lineto
2624 3712 lineto
2624 0 lineto
2176 0 lineto
2176 384 lineto
2040 157 1832 46 conicto
1624 -64 1332 -64 conicto
855 -64 555 324 conicto
256 712 256 1344 conicto
256 1976 555 2364 conicto
855 2752 1332 2752 conicto
1624 2752 1832 2641 conicto
2040 2531 2176 2304 conicto
704 1344 moveto
704 865 900 592 conicto
1096 320 1439 320 conicto
1782 320 1979 592 conicto
2176 865 2176 1344 conicto
2176 1823 1979 2095 conicto
1782 2368 1439 2368 conicto
1096 2368 900 2095 conicto
704 1823 704 1344 conicto
end_ol grestore 
gsave 43.031294 13.682500 translate 0.035278 -0.035278 scale
start_ol
1622 1344 moveto
1104 1344 904 1225 conicto
704 1106 704 818 conicto
704 589 854 454 conicto
1004 320 1262 320 conicto
1618 320 1833 572 conicto
2048 825 2048 1244 conicto
2048 1344 lineto
1622 1344 lineto
2496 1513 moveto
2496 0 lineto
2048 0 lineto
2048 384 lineto
1900 154 1679 45 conicto
1458 -64 1138 -64 conicto
733 -64 494 162 conicto
256 389 256 769 conicto
256 1213 555 1438 conicto
854 1664 1448 1664 conicto
2048 1664 lineto
2048 1712 lineto
2048 2025 1851 2196 conicto
1655 2368 1300 2368 conicto
1074 2368 860 2320 conicto
646 2272 448 2176 conicto
448 2560 lineto
687 2656 912 2704 conicto
1138 2752 1351 2752 conicto
1927 2752 2211 2444 conicto
2496 2137 2496 1513 conicto
end_ol grestore 
gsave 43.423423 13.682500 translate 0.035278 -0.035278 scale
start_ol
896 3456 moveto
896 2688 lineto
1792 2688 lineto
1792 2368 lineto
896 2368 lineto
896 902 lineto
896 572 984 478 conicto
1073 384 1345 384 conicto
1792 384 lineto
1792 0 lineto
1345 0 lineto
836 0 642 194 conicto
448 389 448 902 conicto
448 2368 lineto
128 2368 lineto
128 2688 lineto
448 2688 lineto
448 3456 lineto
896 3456 lineto
end_ol grestore 
gsave 43.673190 13.682500 translate 0.035278 -0.035278 scale
start_ol
2752 1480 moveto
2752 1280 lineto
704 1280 lineto
733 811 978 565 conicto
1223 320 1660 320 conicto
1914 320 2152 384 conicto
2390 448 2624 576 conicto
2624 192 lineto
2388 67 2140 1 conicto
1893 -64 1639 -64 conicto
1001 -64 628 309 conicto
256 683 256 1320 conicto
256 1979 613 2365 conicto
970 2752 1576 2752 conicto
2120 2752 2436 2410 conicto
2752 2068 2752 1480 conicto
2304 1600 moveto
2299 1950 2099 2159 conicto
1900 2368 1572 2368 conicto
1200 2368 976 2166 conicto
753 1964 719 1597 conicto
2304 1600 lineto
end_ol grestore 
gsave 44.067816 13.682500 translate 0.035278 -0.035278 scale
start_ol
end_ol grestore 
gsave 44.270123 13.682500 translate 0.035278 -0.035278 scale
start_ol
2624 3392 moveto
2624 2944 lineto
2352 3073 2111 3136 conicto
1870 3200 1645 3200 conicto
1255 3200 1043 3052 conicto
832 2904 832 2631 conicto
832 2402 969 2285 conicto
1107 2169 1491 2097 conicto
1773 2039 lineto
2308 1937 2562 1678 conicto
2816 1420 2816 986 conicto
2816 469 2468 202 conicto
2121 -64 1450 -64 conicto
1197 -64 911 0 conicto
626 65 320 192 conicto
320 704 lineto
613 513 893 416 conicto
1174 320 1445 320 conicto
1857 320 2080 485 conicto
2304 650 2304 955 conicto
2304 1221 2148 1371 conicto
1992 1522 1636 1597 conicto
1352 1652 lineto
807 1756 563 1978 conicto
320 2201 320 2597 conicto
320 3056 654 3320 conicto
989 3584 1576 3584 conicto
1828 3584 2089 3536 conicto
2351 3488 2624 3392 conicto
end_ol grestore 
gsave 44.677243 13.682500 translate 0.035278 -0.035278 scale
start_ol
1542 -238 moveto
1360 -726 1187 -875 conicto
1015 -1024 726 -1024 conicto
384 -1024 lineto
384 -640 lineto
636 -640 lineto
813 -640 910 -555 conicto
1008 -470 1127 -155 conicto
1204 46 lineto
128 2688 lineto
603 2688 lineto
1418 586 lineto
2234 2688 lineto
2688 2688 lineto
1542 -238 lineto
end_ol grestore 
gsave 45.056887 13.682500 translate 0.035278 -0.035278 scale
start_ol
2549 2204 moveto
2714 2485 2942 2618 conicto
3171 2752 3482 2752 conicto
3899 2752 4125 2464 conicto
4352 2177 4352 1646 conicto
4352 0 lineto
3904 0 lineto
3904 1632 lineto
3904 2006 3769 2187 conicto
3634 2368 3356 2368 conicto
3017 2368 2820 2146 conicto
2624 1925 2624 1542 conicto
2624 0 lineto
2176 0 lineto
2176 1632 lineto
2176 2008 2041 2188 conicto
1906 2368 1624 2368 conicto
1289 2368 1092 2145 conicto
896 1922 896 1542 conicto
896 0 lineto
448 0 lineto
448 2688 lineto
896 2688 lineto
896 2304 lineto
1046 2534 1255 2643 conicto
1465 2752 1753 2752 conicto
2044 2752 2247 2611 conicto
2451 2471 2549 2204 conicto
end_ol grestore 
gsave 45.678798 13.682500 translate 0.035278 -0.035278 scale
start_ol
2368 1344 moveto
2368 1823 2171 2095 conicto
1975 2368 1632 2368 conicto
1289 2368 1092 2095 conicto
896 1823 896 1344 conicto
896 865 1092 592 conicto
1289 320 1632 320 conicto
1975 320 2171 592 conicto
2368 865 2368 1344 conicto
896 2304 moveto
1032 2531 1240 2641 conicto
1448 2752 1737 2752 conicto
2217 2752 2516 2364 conicto
2816 1976 2816 1344 conicto
2816 712 2516 324 conicto
2217 -64 1737 -64 conicto
1448 -64 1240 46 conicto
1032 157 896 384 conicto
896 0 lineto
448 0 lineto
448 3712 lineto
896 3712 lineto
896 2304 lineto
end_ol grestore 
gsave 46.085917 13.682500 translate 0.035278 -0.035278 scale
start_ol
1473 2368 moveto
1117 2368 910 2094 conicto
704 1820 704 1344 conicto
704 868 909 594 conicto
1115 320 1473 320 conicto
1827 320 2033 595 conicto
2240 870 2240 1344 conicto
2240 1816 2033 2092 conicto
1827 2368 1473 2368 conicto
1472 2752 moveto
2040 2752 2364 2378 conicto
2688 2005 2688 1344 conicto
2688 685 2364 310 conicto
2040 -64 1472 -64 conicto
902 -64 579 310 conicto
256 685 256 1344 conicto
256 2005 579 2378 conicto
902 2752 1472 2752 conicto
end_ol grestore 
gsave 46.478046 13.682500 translate 0.035278 -0.035278 scale
start_ol
448 3712 moveto
896 3712 lineto
896 0 lineto
448 0 lineto
448 3712 lineto
end_ol grestore 
0.100000 slw
0 slc
[] 0 sd
n 44.205000 14.437599 m 44.205000 17.062700 l 35.600000 17.062700 l 35.600000 17.062700 l 28.050000 17.062700 l 28.050000 15.273320 l s
0.100000 slw
[] 0 sd
0 slj
0 slc
n 28.300000 15.661517 m 28.050000 15.161517 l 27.800000 15.661517 l s
0.100000 slw
0 slc
[] 0 sd
n 25.999908 14.100000 m 22.150000 14.100000 l 22.150000 -0.112500 l 26.976743 -0.112500 l s
0.100000 slw
[] 0 sd
0 slj
0 slc
n 26.588547 0.137500 m 27.088547 -0.112500 l 26.588547 -0.362500 l s
gsave 22.533750 13.687500 translate 0.035278 -0.035278 scale
start_ol
448 3520 moveto
960 3520 lineto
960 1383 lineto
960 817 1156 568 conicto
1353 320 1793 320 conicto
2231 320 2427 568 conicto
2624 817 2624 1383 conicto
2624 3520 lineto
3136 3520 lineto
3136 1324 lineto
3136 637 2796 286 conicto
2456 -64 1793 -64 conicto
1128 -64 788 286 conicto
448 637 448 1324 conicto
448 3520 lineto
end_ol grestore 
gsave 23.000806 13.687500 translate 0.035278 -0.035278 scale
start_ol
2112 2560 moveto
2112 2176 lineto
1932 2272 1738 2320 conicto
1544 2368 1336 2368 conicto
1020 2368 862 2269 conicto
704 2170 704 1972 conicto
704 1821 814 1735 conicto
925 1649 1260 1571 conicto
1403 1538 lineto
1857 1438 2048 1255 conicto
2240 1072 2240 744 conicto
2240 371 1954 153 conicto
1668 -64 1167 -64 conicto
958 -64 732 -16 conicto
506 32 256 128 conicto
256 576 lineto
491 448 719 384 conicto
947 320 1170 320 conicto
1470 320 1631 425 conicto
1792 531 1792 722 conicto
1792 900 1678 994 conicto
1564 1089 1177 1177 conicto
1032 1212 lineto
621 1298 438 1476 conicto
256 1654 256 1964 conicto
256 2341 520 2546 conicto
784 2752 1269 2752 conicto
1509 2752 1721 2704 conicto
1933 2656 2112 2560 conicto
end_ol grestore 
gsave 23.332990 13.687500 translate 0.035278 -0.035278 scale
start_ol
2752 1480 moveto
2752 1280 lineto
704 1280 lineto
733 811 978 565 conicto
1223 320 1660 320 conicto
1914 320 2152 384 conicto
2390 448 2624 576 conicto
2624 192 lineto
2388 67 2140 1 conicto
1893 -64 1639 -64 conicto
1001 -64 628 309 conicto
256 683 256 1320 conicto
256 1979 613 2365 conicto
970 2752 1576 2752 conicto
2120 2752 2436 2410 conicto
2752 2068 2752 1480 conicto
2304 1600 moveto
2299 1950 2099 2159 conicto
1900 2368 1572 2368 conicto
1200 2368 976 2166 conicto
753 1964 719 1597 conicto
2304 1600 lineto
end_ol grestore 
gsave 23.727616 13.687500 translate 0.035278 -0.035278 scale
start_ol
1984 2304 moveto
1912 2337 1828 2352 conicto
1744 2368 1642 2368 conicto
1282 2368 1089 2127 conicto
896 1887 896 1437 conicto
896 0 lineto
448 0 lineto
448 2688 lineto
896 2688 lineto
896 2304 lineto
1030 2531 1245 2641 conicto
1460 2752 1767 2752 conicto
1811 2752 1864 2752 conicto
1917 2752 1982 2752 conicto
1984 2304 lineto
end_ol grestore 
gsave 23.989868 13.687500 translate 0.035278 -0.035278 scale
start_ol
end_ol grestore 
gsave 24.192175 13.687500 translate 0.035278 -0.035278 scale
start_ol
704 1344 moveto
704 865 900 592 conicto
1096 320 1439 320 conicto
1782 320 1979 592 conicto
2176 865 2176 1344 conicto
2176 1823 1979 2095 conicto
1782 2368 1439 2368 conicto
1096 2368 900 2095 conicto
704 1823 704 1344 conicto
2176 384 moveto
2040 157 1832 46 conicto
1624 -64 1332 -64 conicto
855 -64 555 324 conicto
256 712 256 1344 conicto
256 1976 555 2364 conicto
855 2752 1332 2752 conicto
1624 2752 1832 2641 conicto
2040 2531 2176 2304 conicto
2176 2688 lineto
2624 2688 lineto
2624 -1024 lineto
2176 -1024 lineto
2176 384 lineto
end_ol grestore 
gsave 24.599294 13.687500 translate 0.035278 -0.035278 scale
start_ol
448 1040 moveto
448 2688 lineto
896 2688 lineto
896 1057 lineto
896 689 1042 504 conicto
1188 320 1481 320 conicto
1832 320 2036 541 conicto
2240 763 2240 1145 conicto
2240 2688 lineto
2688 2688 lineto
2688 0 lineto
2240 0 lineto
2240 384 lineto
2081 157 1870 46 conicto
1660 -64 1382 -64 conicto
923 -64 685 217 conicto
448 499 448 1040 conicto
1554 2752 moveto
1554 2752 lineto
end_ol grestore 
gsave 25.003908 13.687500 translate 0.035278 -0.035278 scale
start_ol
448 2688 moveto
896 2688 lineto
896 0 lineto
448 0 lineto
448 2688 lineto
448 3712 moveto
896 3712 lineto
896 3136 lineto
448 3136 lineto
448 3712 lineto
end_ol grestore 
gsave 25.181237 13.687500 translate 0.035278 -0.035278 scale
start_ol
896 3456 moveto
896 2688 lineto
1792 2688 lineto
1792 2368 lineto
896 2368 lineto
896 902 lineto
896 572 984 478 conicto
1073 384 1345 384 conicto
1792 384 lineto
1792 0 lineto
1345 0 lineto
836 0 642 194 conicto
448 389 448 902 conicto
448 2368 lineto
128 2368 lineto
128 2688 lineto
448 2688 lineto
448 3456 lineto
896 3456 lineto
end_ol grestore 
gsave 25.431004 13.687500 translate 0.035278 -0.035278 scale
start_ol
2112 2560 moveto
2112 2176 lineto
1932 2272 1738 2320 conicto
1544 2368 1336 2368 conicto
1020 2368 862 2269 conicto
704 2170 704 1972 conicto
704 1821 814 1735 conicto
925 1649 1260 1571 conicto
1403 1538 lineto
1857 1438 2048 1255 conicto
2240 1072 2240 744 conicto
2240 371 1954 153 conicto
1668 -64 1167 -64 conicto
958 -64 732 -16 conicto
506 32 256 128 conicto
256 576 lineto
491 448 719 384 conicto
947 320 1170 320 conicto
1470 320 1631 425 conicto
1792 531 1792 722 conicto
1792 900 1678 994 conicto
1564 1089 1177 1177 conicto
1032 1212 lineto
621 1298 438 1476 conicto
256 1654 256 1964 conicto
256 2341 520 2546 conicto
784 2752 1269 2752 conicto
1509 2752 1721 2704 conicto
1933 2656 2112 2560 conicto
end_ol grestore 
0.100000 slw
[] 0 sd
1.000000 1.000000 1.000000 srgb
n 27.750000 -1.412500 m 27.750000 1.187500 l 34.295000 1.187500 l 34.295000 -1.412500 l f
n 27.750000 -0.912500 m 27.750000 -0.912500 0.500000 0.500000 180.000000 270.000000 ellipse f
n 34.295000 -0.912500 m 34.295000 -0.912500 0.500000 0.500000 270.000000 360.000000 ellipse f
n 27.250000 -0.912500 m 27.250000 0.687500 l 34.795000 0.687500 l 34.795000 -0.912500 l f
n 27.750000 0.687500 m 27.750000 0.687500 0.500000 0.500000 90.000000 180.000000 ellipse f
n 34.295000 0.687500 m 34.295000 0.687500 0.500000 0.500000 0.000000 90.000000 ellipse f
0.000000 0.000000 0.000000 srgb
n 27.750000 -1.412500 m 34.295000 -1.412500 l s
n 27.750000 1.187500 m 34.295000 1.187500 l s
n 27.750000 -0.912500 0.500000 0.500000 180.000000 270.000000 ellipse s
n 34.295000 -0.912500 0.500000 0.500000 270.000000 360.000000 ellipse s
n 27.250000 -0.912500 m 27.250000 0.687500 l s
n 34.795000 -0.912500 m 34.795000 0.687500 l s
n 27.750000 0.687500 0.500000 0.500000 90.000000 180.000000 ellipse s
n 34.295000 0.687500 0.500000 0.500000 0.000000 90.000000 ellipse s
gsave 29.921250 -0.317500 translate 0.035278 -0.035278 scale
start_ol
448 3520 moveto
2688 3520 lineto
2688 3136 lineto
960 3136 lineto
960 2112 lineto
2624 2112 lineto
2624 1728 lineto
960 1728 lineto
960 384 lineto
2752 384 lineto
2752 0 lineto
448 0 lineto
448 3520 lineto
end_ol grestore 
gsave 30.325864 -0.317500 translate 0.035278 -0.035278 scale
start_ol
2624 2688 moveto
1666 1380 lineto
2688 0 lineto
2169 0 lineto
1389 1056 lineto
632 0 lineto
128 0 lineto
1134 1406 lineto
192 2688 lineto
705 2688 lineto
1408 1730 lineto
2111 2688 lineto
2624 2688 lineto
end_ol grestore 
gsave 30.705508 -0.317500 translate 0.035278 -0.035278 scale
start_ol
448 2688 moveto
896 2688 lineto
896 0 lineto
448 0 lineto
448 2688 lineto
448 3712 moveto
896 3712 lineto
896 3136 lineto
448 3136 lineto
448 3712 lineto
end_ol grestore 
gsave 30.882837 -0.317500 translate 0.035278 -0.035278 scale
start_ol
896 3456 moveto
896 2688 lineto
1792 2688 lineto
1792 2368 lineto
896 2368 lineto
896 902 lineto
896 572 984 478 conicto
1073 384 1345 384 conicto
1792 384 lineto
1792 0 lineto
1345 0 lineto
836 0 642 194 conicto
448 389 448 902 conicto
448 2368 lineto
128 2368 lineto
128 2688 lineto
448 2688 lineto
448 3456 lineto
896 3456 lineto
end_ol grestore 
gsave 31.132603 -0.317500 translate 0.035278 -0.035278 scale
start_ol
448 2688 moveto
896 2688 lineto
896 0 lineto
448 0 lineto
448 2688 lineto
448 3712 moveto
896 3712 lineto
896 3136 lineto
448 3136 lineto
448 3712 lineto
end_ol grestore 
gsave 31.309932 -0.317500 translate 0.035278 -0.035278 scale
start_ol
2688 1646 moveto
2688 0 lineto
2240 0 lineto
2240 1632 lineto
2240 2001 2093 2184 conicto
1947 2368 1654 2368 conicto
1302 2368 1099 2146 conicto
896 1925 896 1542 conicto
896 0 lineto
448 0 lineto
448 2688 lineto
896 2688 lineto
896 2304 lineto
1053 2529 1266 2640 conicto
1479 2752 1757 2752 conicto
2217 2752 2452 2471 conicto
2688 2191 2688 1646 conicto
end_ol grestore 
gsave 31.714546 -0.317500 translate 0.035278 -0.035278 scale
start_ol
2176 1375 moveto
2176 1848 1982 2108 conicto
1789 2368 1439 2368 conicto
1091 2368 897 2108 conicto
704 1848 704 1375 conicto
704 904 897 644 conicto
1091 384 1439 384 conicto
1789 384 1982 644 conicto
2176 904 2176 1375 conicto
2624 347 moveto
2624 -347 2323 -685 conicto
2023 -1024 1404 -1024 conicto
1174 -1024 971 -992 conicto
768 -961 576 -896 conicto
576 -448 lineto
766 -546 951 -593 conicto
1137 -640 1329 -640 conicto
1754 -640 1965 -415 conicto
2176 -190 2176 264 conicto
2176 448 lineto
2042 223 1833 111 conicto
1624 0 1332 0 conicto
848 0 552 376 conicto
256 753 256 1375 conicto
256 1999 552 2375 conicto
848 2752 1332 2752 conicto
1624 2752 1833 2640 conicto
2042 2529 2176 2304 conicto
2176 2688 lineto
2624 2688 lineto
2624 347 lineto
end_ol grestore 
gsave 27.750000 0.482500 translate 0.035278 -0.035278 scale
start_ol
2176 2304 moveto
2176 3712 lineto
2624 3712 lineto
2624 0 lineto
2176 0 lineto
2176 384 lineto
2040 157 1832 46 conicto
1624 -64 1332 -64 conicto
855 -64 555 324 conicto
256 712 256 1344 conicto
256 1976 555 2364 conicto
855 2752 1332 2752 conicto
1624 2752 1832 2641 conicto
2040 2531 2176 2304 conicto
704 1344 moveto
704 865 900 592 conicto
1096 320 1439 320 conicto
1782 320 1979 592 conicto
2176 865 2176 1344 conicto
2176 1823 1979 2095 conicto
1782 2368 1439 2368 conicto
1096 2368 900 2095 conicto
704 1823 704 1344 conicto
end_ol grestore 
gsave 28.157119 0.482500 translate 0.035278 -0.035278 scale
start_ol
1473 2368 moveto
1117 2368 910 2094 conicto
704 1820 704 1344 conicto
704 868 909 594 conicto
1115 320 1473 320 conicto
1827 320 2033 595 conicto
2240 870 2240 1344 conicto
2240 1816 2033 2092 conicto
1827 2368 1473 2368 conicto
1472 2752 moveto
2040 2752 2364 2378 conicto
2688 2005 2688 1344 conicto
2688 685 2364 310 conicto
2040 -64 1472 -64 conicto
902 -64 579 310 conicto
256 685 256 1344 conicto
256 2005 579 2378 conicto
902 2752 1472 2752 conicto
end_ol grestore 
gsave 28.549248 0.482500 translate 0.035278 -0.035278 scale
start_ol
1254 3520 moveto
1664 3520 lineto
410 -448 lineto
0 -448 lineto
1254 3520 lineto
end_ol grestore 
gsave 28.764040 0.482500 translate 0.035278 -0.035278 scale
start_ol
end_ol grestore 
gsave 28.966347 0.482500 translate 0.035278 -0.035278 scale
start_ol
2624 3392 moveto
2624 2944 lineto
2352 3073 2111 3136 conicto
1870 3200 1645 3200 conicto
1255 3200 1043 3052 conicto
832 2904 832 2631 conicto
832 2402 969 2285 conicto
1107 2169 1491 2097 conicto
1773 2039 lineto
2308 1937 2562 1678 conicto
2816 1420 2816 986 conicto
2816 469 2468 202 conicto
2121 -64 1450 -64 conicto
1197 -64 911 0 conicto
626 65 320 192 conicto
320 704 lineto
613 513 893 416 conicto
1174 320 1445 320 conicto
1857 320 2080 485 conicto
2304 650 2304 955 conicto
2304 1221 2148 1371 conicto
1992 1522 1636 1597 conicto
1352 1652 lineto
807 1756 563 1978 conicto
320 2201 320 2597 conicto
320 3056 654 3320 conicto
989 3584 1576 3584 conicto
1828 3584 2089 3536 conicto
2351 3488 2624 3392 conicto
end_ol grestore 
gsave 29.373467 0.482500 translate 0.035278 -0.035278 scale
start_ol
2752 1480 moveto
2752 1280 lineto
704 1280 lineto
733 811 978 565 conicto
1223 320 1660 320 conicto
1914 320 2152 384 conicto
2390 448 2624 576 conicto
2624 192 lineto
2388 67 2140 1 conicto
1893 -64 1639 -64 conicto
1001 -64 628 309 conicto
256 683 256 1320 conicto
256 1979 613 2365 conicto
970 2752 1576 2752 conicto
2120 2752 2436 2410 conicto
2752 2068 2752 1480 conicto
2304 1600 moveto
2299 1950 2099 2159 conicto
1900 2368 1572 2368 conicto
1200 2368 976 2166 conicto
753 1964 719 1597 conicto
2304 1600 lineto
end_ol grestore 
gsave 29.768093 0.482500 translate 0.035278 -0.035278 scale
start_ol
2688 1646 moveto
2688 0 lineto
2240 0 lineto
2240 1632 lineto
2240 2001 2093 2184 conicto
1947 2368 1654 2368 conicto
1302 2368 1099 2146 conicto
896 1925 896 1542 conicto
896 0 lineto
448 0 lineto
448 2688 lineto
896 2688 lineto
896 2304 lineto
1053 2529 1266 2640 conicto
1479 2752 1757 2752 conicto
2217 2752 2452 2471 conicto
2688 2191 2688 1646 conicto
end_ol grestore 
gsave 30.172707 0.482500 translate 0.035278 -0.035278 scale
start_ol
2176 2304 moveto
2176 3712 lineto
2624 3712 lineto
2624 0 lineto
2176 0 lineto
2176 384 lineto
2040 157 1832 46 conicto
1624 -64 1332 -64 conicto
855 -64 555 324 conicto
256 712 256 1344 conicto
256 1976 555 2364 conicto
855 2752 1332 2752 conicto
1624 2752 1832 2641 conicto
2040 2531 2176 2304 conicto
704 1344 moveto
704 865 900 592 conicto
1096 320 1439 320 conicto
1782 320 1979 592 conicto
2176 865 2176 1344 conicto
2176 1823 1979 2095 conicto
1782 2368 1439 2368 conicto
1096 2368 900 2095 conicto
704 1823 704 1344 conicto
end_ol grestore 
gsave 30.579826 0.482500 translate 0.035278 -0.035278 scale
start_ol
end_ol grestore 
gsave 30.782133 0.482500 translate 0.035278 -0.035278 scale
start_ol
448 3520 moveto
2688 3520 lineto
2688 3136 lineto
960 3136 lineto
960 2112 lineto
2624 2112 lineto
2624 1728 lineto
960 1728 lineto
960 384 lineto
2752 384 lineto
2752 0 lineto
448 0 lineto
448 3520 lineto
end_ol grestore 
gsave 31.186747 0.482500 translate 0.035278 -0.035278 scale
start_ol
2624 2688 moveto
1666 1380 lineto
2688 0 lineto
2169 0 lineto
1389 1056 lineto
632 0 lineto
128 0 lineto
1134 1406 lineto
192 2688 lineto
705 2688 lineto
1408 1730 lineto
2111 2688 lineto
2624 2688 lineto
end_ol grestore 
gsave 31.566391 0.482500 translate 0.035278 -0.035278 scale
start_ol
448 2688 moveto
896 2688 lineto
896 0 lineto
448 0 lineto
448 2688 lineto
448 3712 moveto
896 3712 lineto
896 3136 lineto
448 3136 lineto
448 3712 lineto
end_ol grestore 
gsave 31.743720 0.482500 translate 0.035278 -0.035278 scale
start_ol
896 3456 moveto
896 2688 lineto
1792 2688 lineto
1792 2368 lineto
896 2368 lineto
896 902 lineto
896 572 984 478 conicto
1073 384 1345 384 conicto
1792 384 lineto
1792 0 lineto
1345 0 lineto
836 0 642 194 conicto
448 389 448 902 conicto
448 2368 lineto
128 2368 lineto
128 2688 lineto
448 2688 lineto
448 3456 lineto
896 3456 lineto
end_ol grestore 
gsave 31.993487 0.482500 translate 0.035278 -0.035278 scale
start_ol
end_ol grestore 
gsave 32.195794 0.482500 translate 0.035278 -0.035278 scale
start_ol
960 3136 moveto
960 1792 lineto
1552 1792 lineto
1881 1792 2060 1967 conicto
2240 2142 2240 2465 conicto
2240 2786 2060 2961 conicto
1881 3136 1552 3136 conicto
960 3136 lineto
448 3520 moveto
1552 3520 lineto
2145 3520 2448 3251 conicto
2752 2983 2752 2465 conicto
2752 1943 2448 1675 conicto
2145 1408 1552 1408 conicto
960 1408 lineto
960 0 lineto
448 0 lineto
448 3520 lineto
end_ol grestore 
gsave 32.552956 0.482500 translate 0.035278 -0.035278 scale
start_ol
1622 1344 moveto
1104 1344 904 1225 conicto
704 1106 704 818 conicto
704 589 854 454 conicto
1004 320 1262 320 conicto
1618 320 1833 572 conicto
2048 825 2048 1244 conicto
2048 1344 lineto
1622 1344 lineto
2496 1513 moveto
2496 0 lineto
2048 0 lineto
2048 384 lineto
1900 154 1679 45 conicto
1458 -64 1138 -64 conicto
733 -64 494 162 conicto
256 389 256 769 conicto
256 1213 555 1438 conicto
854 1664 1448 1664 conicto
2048 1664 lineto
2048 1712 lineto
2048 2025 1851 2196 conicto
1655 2368 1300 2368 conicto
1074 2368 860 2320 conicto
646 2272 448 2176 conicto
448 2560 lineto
687 2656 912 2704 conicto
1138 2752 1351 2752 conicto
1927 2752 2211 2444 conicto
2496 2137 2496 1513 conicto
end_ol grestore 
gsave 32.945085 0.482500 translate 0.035278 -0.035278 scale
start_ol
2368 2560 moveto
2368 2176 lineto
2180 2272 1991 2320 conicto
1803 2368 1611 2368 conicto
1180 2368 942 2099 conicto
704 1830 704 1344 conicto
704 858 942 589 conicto
1180 320 1611 320 conicto
1803 320 1991 368 conicto
2180 416 2368 512 conicto
2368 128 lineto
2184 32 1987 -16 conicto
1791 -64 1569 -64 conicto
966 -64 611 316 conicto
256 697 256 1344 conicto
256 2000 615 2376 conicto
974 2752 1598 2752 conicto
1801 2752 1994 2704 conicto
2187 2656 2368 2560 conicto
end_ol grestore 
gsave 33.297254 0.482500 translate 0.035278 -0.035278 scale
start_ol
448 3712 moveto
896 3712 lineto
896 1529 lineto
2196 2688 lineto
2752 2688 lineto
1346 1430 lineto
2816 0 lineto
2246 0 lineto
896 1313 lineto
896 0 lineto
448 0 lineto
448 3712 lineto
end_ol grestore 
gsave 33.644429 0.482500 translate 0.035278 -0.035278 scale
start_ol
2752 1480 moveto
2752 1280 lineto
704 1280 lineto
733 811 978 565 conicto
1223 320 1660 320 conicto
1914 320 2152 384 conicto
2390 448 2624 576 conicto
2624 192 lineto
2388 67 2140 1 conicto
1893 -64 1639 -64 conicto
1001 -64 628 309 conicto
256 683 256 1320 conicto
256 1979 613 2365 conicto
970 2752 1576 2752 conicto
2120 2752 2436 2410 conicto
2752 2068 2752 1480 conicto
2304 1600 moveto
2299 1950 2099 2159 conicto
1900 2368 1572 2368 conicto
1200 2368 976 2166 conicto
753 1964 719 1597 conicto
2304 1600 lineto
end_ol grestore 
gsave 34.039055 0.482500 translate 0.035278 -0.035278 scale
start_ol
896 3456 moveto
896 2688 lineto
1792 2688 lineto
1792 2368 lineto
896 2368 lineto
896 902 lineto
896 572 984 478 conicto
1073 384 1345 384 conicto
1792 384 lineto
1792 0 lineto
1345 0 lineto
836 0 642 194 conicto
448 389 448 902 conicto
448 2368 lineto
128 2368 lineto
128 2688 lineto
448 2688 lineto
448 3456 lineto
896 3456 lineto
end_ol grestore 
n 27.250000 -0.112500 m 34.795000 -0.112500 l s
0.100000 slw
[] 0 sd
1.000000 1.000000 1.000000 srgb
n 44.650000 -0.362500 0.750000 0.750000 0 360 ellipse f
0.000000 0.000000 0.000000 srgb
n 44.650000 -0.362500 0.750000 0.750000 0 360 ellipse cp s
n 44.650000 -0.362500 0.500000 0.500000 0 360 ellipse f
0.100000 slw
0 slc
[] 0 sd
n 34.850000 -0.462500 m 39.349805 -0.462500 l 39.349805 -0.362500 l 43.626003 -0.362500 l s
0.100000 slw
[] 0 sd
0 slj
0 slc
n 43.237806 -0.112500 m 43.737806 -0.362500 l 43.237806 -0.612500 l s
0.100000 slw
0 slc
[] 0 sd
n 30.050000 13.200000 m 30.050000 11.437500 l 48.650000 11.437500 l 48.650000 4.337500 l 47.346107 4.337500 l s
0.100000 slw
[] 0 sd
0 slj
0 slc
n 47.734303 4.087500 m 47.234303 4.337500 l 47.734303 4.587500 l s
gsave 40.170050 10.887500 translate 0.035278 -0.035278 scale
start_ol
960 3136 moveto
960 1792 lineto
1552 1792 lineto
1881 1792 2060 1967 conicto
2240 2142 2240 2465 conicto
2240 2786 2060 2961 conicto
1881 3136 1552 3136 conicto
960 3136 lineto
448 3520 moveto
1552 3520 lineto
2145 3520 2448 3251 conicto
2752 2983 2752 2465 conicto
2752 1943 2448 1675 conicto
2145 1408 1552 1408 conicto
960 1408 lineto
960 0 lineto
448 0 lineto
448 3520 lineto
end_ol grestore 
gsave 40.532207 10.887500 translate 0.035278 -0.035278 scale
start_ol
1473 2368 moveto
1117 2368 910 2094 conicto
704 1820 704 1344 conicto
704 868 909 594 conicto
1115 320 1473 320 conicto
1827 320 2033 595 conicto
2240 870 2240 1344 conicto
2240 1816 2033 2092 conicto
1827 2368 1473 2368 conicto
1472 2752 moveto
2040 2752 2364 2378 conicto
2688 2005 2688 1344 conicto
2688 685 2364 310 conicto
2040 -64 1472 -64 conicto
902 -64 579 310 conicto
256 685 256 1344 conicto
256 2005 579 2378 conicto
902 2752 1472 2752 conicto
end_ol grestore 
gsave 40.924336 10.887500 translate 0.035278 -0.035278 scale
start_ol
1984 2304 moveto
1912 2337 1828 2352 conicto
1744 2368 1642 2368 conicto
1282 2368 1089 2127 conicto
896 1887 896 1437 conicto
896 0 lineto
448 0 lineto
448 2688 lineto
896 2688 lineto
896 2304 lineto
1030 2531 1245 2641 conicto
1460 2752 1767 2752 conicto
1811 2752 1864 2752 conicto
1917 2752 1982 2752 conicto
1984 2304 lineto
end_ol grestore 
gsave 41.186587 10.887500 translate 0.035278 -0.035278 scale
start_ol
896 3456 moveto
896 2688 lineto
1792 2688 lineto
1792 2368 lineto
896 2368 lineto
896 902 lineto
896 572 984 478 conicto
1073 384 1345 384 conicto
1792 384 lineto
1792 0 lineto
1345 0 lineto
836 0 642 194 conicto
448 389 448 902 conicto
448 2368 lineto
128 2368 lineto
128 2688 lineto
448 2688 lineto
448 3456 lineto
896 3456 lineto
end_ol grestore 
gsave 41.436354 10.887500 translate 0.035278 -0.035278 scale
start_ol
1792 3712 moveto
1792 3328 lineto
1369 3328 lineto
1139 3328 1049 3237 conicto
960 3147 960 2912 conicto
960 2688 lineto
1664 2688 lineto
1664 2368 lineto
960 2368 lineto
960 0 lineto
512 0 lineto
512 2368 lineto
64 2368 lineto
64 2688 lineto
512 2688 lineto
512 2864 lineto
512 3307 718 3509 conicto
925 3712 1374 3712 conicto
1792 3712 lineto
end_ol grestore 
gsave 41.661142 10.887500 translate 0.035278 -0.035278 scale
start_ol
1473 2368 moveto
1117 2368 910 2094 conicto
704 1820 704 1344 conicto
704 868 909 594 conicto
1115 320 1473 320 conicto
1827 320 2033 595 conicto
2240 870 2240 1344 conicto
2240 1816 2033 2092 conicto
1827 2368 1473 2368 conicto
1472 2752 moveto
2040 2752 2364 2378 conicto
2688 2005 2688 1344 conicto
2688 685 2364 310 conicto
2040 -64 1472 -64 conicto
902 -64 579 310 conicto
256 685 256 1344 conicto
256 2005 579 2378 conicto
902 2752 1472 2752 conicto
end_ol grestore 
gsave 42.053271 10.887500 translate 0.035278 -0.035278 scale
start_ol
448 3712 moveto
896 3712 lineto
896 0 lineto
448 0 lineto
448 3712 lineto
end_ol grestore 
gsave 42.230600 10.887500 translate 0.035278 -0.035278 scale
start_ol
448 2688 moveto
896 2688 lineto
896 0 lineto
448 0 lineto
448 2688 lineto
448 3712 moveto
896 3712 lineto
896 3136 lineto
448 3136 lineto
448 3712 lineto
end_ol grestore 
gsave 42.407929 10.887500 translate 0.035278 -0.035278 scale
start_ol
1473 2368 moveto
1117 2368 910 2094 conicto
704 1820 704 1344 conicto
704 868 909 594 conicto
1115 320 1473 320 conicto
1827 320 2033 595 conicto
2240 870 2240 1344 conicto
2240 1816 2033 2092 conicto
1827 2368 1473 2368 conicto
1472 2752 moveto
2040 2752 2364 2378 conicto
2688 2005 2688 1344 conicto
2688 685 2364 310 conicto
2040 -64 1472 -64 conicto
902 -64 579 310 conicto
256 685 256 1344 conicto
256 2005 579 2378 conicto
902 2752 1472 2752 conicto
end_ol grestore 
gsave 42.800058 10.887500 translate 0.035278 -0.035278 scale
start_ol
end_ol grestore 
gsave 43.002365 10.887500 translate 0.035278 -0.035278 scale
start_ol
448 3520 moveto
960 3520 lineto
960 1383 lineto
960 817 1156 568 conicto
1353 320 1793 320 conicto
2231 320 2427 568 conicto
2624 817 2624 1383 conicto
2624 3520 lineto
3136 3520 lineto
3136 1324 lineto
3136 637 2796 286 conicto
2456 -64 1793 -64 conicto
1128 -64 788 286 conicto
448 637 448 1324 conicto
448 3520 lineto
end_ol grestore 
gsave 43.469421 10.887500 translate 0.035278 -0.035278 scale
start_ol
896 384 moveto
896 -1024 lineto
448 -1024 lineto
448 2688 lineto
896 2688 lineto
896 2304 lineto
1032 2531 1240 2641 conicto
1448 2752 1737 2752 conicto
2217 2752 2516 2364 conicto
2816 1976 2816 1344 conicto
2816 712 2516 324 conicto
2217 -64 1737 -64 conicto
1448 -64 1240 46 conicto
1032 157 896 384 conicto
2368 1344 moveto
2368 1823 2171 2095 conicto
1975 2368 1632 2368 conicto
1289 2368 1092 2095 conicto
896 1823 896 1344 conicto
896 865 1092 592 conicto
1289 320 1632 320 conicto
1975 320 2171 592 conicto
2368 865 2368 1344 conicto
end_ol grestore 
gsave 43.876540 10.887500 translate 0.035278 -0.035278 scale
start_ol
2176 2304 moveto
2176 3712 lineto
2624 3712 lineto
2624 0 lineto
2176 0 lineto
2176 384 lineto
2040 157 1832 46 conicto
1624 -64 1332 -64 conicto
855 -64 555 324 conicto
256 712 256 1344 conicto
256 1976 555 2364 conicto
855 2752 1332 2752 conicto
1624 2752 1832 2641 conicto
2040 2531 2176 2304 conicto
704 1344 moveto
704 865 900 592 conicto
1096 320 1439 320 conicto
1782 320 1979 592 conicto
2176 865 2176 1344 conicto
2176 1823 1979 2095 conicto
1782 2368 1439 2368 conicto
1096 2368 900 2095 conicto
704 1823 704 1344 conicto
end_ol grestore 
gsave 44.283659 10.887500 translate 0.035278 -0.035278 scale
start_ol
1622 1344 moveto
1104 1344 904 1225 conicto
704 1106 704 818 conicto
704 589 854 454 conicto
1004 320 1262 320 conicto
1618 320 1833 572 conicto
2048 825 2048 1244 conicto
2048 1344 lineto
1622 1344 lineto
2496 1513 moveto
2496 0 lineto
2048 0 lineto
2048 384 lineto
1900 154 1679 45 conicto
1458 -64 1138 -64 conicto
733 -64 494 162 conicto
256 389 256 769 conicto
256 1213 555 1438 conicto
854 1664 1448 1664 conicto
2048 1664 lineto
2048 1712 lineto
2048 2025 1851 2196 conicto
1655 2368 1300 2368 conicto
1074 2368 860 2320 conicto
646 2272 448 2176 conicto
448 2560 lineto
687 2656 912 2704 conicto
1138 2752 1351 2752 conicto
1927 2752 2211 2444 conicto
2496 2137 2496 1513 conicto
end_ol grestore 
gsave 44.675788 10.887500 translate 0.035278 -0.035278 scale
start_ol
896 3456 moveto
896 2688 lineto
1792 2688 lineto
1792 2368 lineto
896 2368 lineto
896 902 lineto
896 572 984 478 conicto
1073 384 1345 384 conicto
1792 384 lineto
1792 0 lineto
1345 0 lineto
836 0 642 194 conicto
448 389 448 902 conicto
448 2368 lineto
128 2368 lineto
128 2688 lineto
448 2688 lineto
448 3456 lineto
896 3456 lineto
end_ol grestore 
gsave 44.925555 10.887500 translate 0.035278 -0.035278 scale
start_ol
2752 1480 moveto
2752 1280 lineto
704 1280 lineto
733 811 978 565 conicto
1223 320 1660 320 conicto
1914 320 2152 384 conicto
2390 448 2624 576 conicto
2624 192 lineto
2388 67 2140 1 conicto
1893 -64 1639 -64 conicto
1001 -64 628 309 conicto
256 683 256 1320 conicto
256 1979 613 2365 conicto
970 2752 1576 2752 conicto
2120 2752 2436 2410 conicto
2752 2068 2752 1480 conicto
2304 1600 moveto
2299 1950 2099 2159 conicto
1900 2368 1572 2368 conicto
1200 2368 976 2166 conicto
753 1964 719 1597 conicto
2304 1600 lineto
end_ol grestore 
gsave 45.320181 10.887500 translate 0.035278 -0.035278 scale
start_ol
2112 2560 moveto
2112 2176 lineto
1932 2272 1738 2320 conicto
1544 2368 1336 2368 conicto
1020 2368 862 2269 conicto
704 2170 704 1972 conicto
704 1821 814 1735 conicto
925 1649 1260 1571 conicto
1403 1538 lineto
1857 1438 2048 1255 conicto
2240 1072 2240 744 conicto
2240 371 1954 153 conicto
1668 -64 1167 -64 conicto
958 -64 732 -16 conicto
506 32 256 128 conicto
256 576 lineto
491 448 719 384 conicto
947 320 1170 320 conicto
1470 320 1631 425 conicto
1792 531 1792 722 conicto
1792 900 1678 994 conicto
1564 1089 1177 1177 conicto
1032 1212 lineto
621 1298 438 1476 conicto
256 1654 256 1964 conicto
256 2341 520 2546 conicto
784 2752 1269 2752 conicto
1509 2752 1721 2704 conicto
1933 2656 2112 2560 conicto
end_ol grestore 
showpage
